[
  {
    "artistId": 408932,
    "artistName": "Rammstein",
    "collectionId": 371762627,
    "collectionName": "Haifisch - EP",
    "kind": "album",
    "type": "collection"
  },
  {
    "artistId": 408932,
    "artistName": "Rammstein",
    "collectionId": 1167514006,
    "collectionName": "XXI - Klavier",
    "kind": "album",
    "type": "collection"
  },
  {
    "artistId": 408932,
    "artistName": "Rammstein",
    "collectionId": 479060660,
    "collectionName": "Mein Land - EP",
    "kind": "album",
    "type": "collection"
  },
  {
    "artistId": 408932,
    "artistName": "Rammstein",
    "collectionId": 1237354646,
    "collectionName": "RARITÄTEN (1994-2012)",
    "kind": "album",
    "type": "collection"
  },
  {
    "artistId": 408932,
    "artistName": "Rammstein",
    "collectionId": 368317231,
    "collectionName": "Sehnsucht",
    "kind": "album",
    "type": "collection"
  },
  {
    "artistId": 408932,
    "artistName": "Rammstein",
    "collectionId": 479128136,
    "collectionName": "Made in Germany 1995-2011",
    "kind": "album",
    "type": "collection"
  },
  {
    "artistId": 408932,
    "artistName": "Rammstein",
    "collectionId": 368317098,
    "collectionName": "Herzeleid",
    "kind": "album",
    "type": "collection"
  },
  {
    "artistId": 408932,
    "artistName": "Rammstein",
    "collectionId": 368317934,
    "collectionName": "Live aus Berlin (August 1998 Parkbühne Wuhlheide, Berlin)",
    "kind": "album",
    "type": "collection"
  },
  {
    "artistId": 408932,
    "artistName": "Rammstein",
    "collectionId": 334462044,
    "collectionName": "Liebe is für alle da (Bonus Track Version)",
    "kind": "album",
    "type": "collection"
  },
  {
    "artistId": 408932,
    "artistName": "Rammstein",
    "collectionId": 368318241,
    "collectionName": "Mutter",
    "kind": "album",
    "type": "collection"
  },
  {
    "artistId": 408932,
    "artistName": "Rammstein",
    "collectionId": 334579054,
    "collectionName": "Liebe ist für alle da",
    "kind": "album",
    "type": "collection"
  },
  {
    "artistId": 408932,
    "artistName": "Rammstein",
    "collectionId": 1217633601,
    "collectionName": "PARIS (LIVE)",
    "kind": "album",
    "type": "collection"
  },
  {
    "artistId": 408932,
    "artistName": "Rammstein",
    "collectionId": 59698356,
    "collectionName": "Keine Lust - EP",
    "kind": "album",
    "type": "collection"
  },
  {
    "artistId": 408932,
    "artistName": "Rammstein",
    "collectionId": 368318407,
    "collectionName": "Reise, Reise",
    "kind": "album",
    "type": "collection"
  },
  {
    "artistId": 408932,
    "artistName": "Rammstein",
    "collectionId": 479128100,
    "collectionName": "Made in Germany (1995-2011) [Special Version]",
    "kind": "album",
    "type": "collection"
  },
  {
    "artistId": 408932,
    "artistName": "Rammstein",
    "collectionId": 368318544,
    "collectionName": "Rosenrot",
    "kind": "album",
    "type": "collection"
  },
  {
    "artistId": 889780,
    "artistName": "Red Hot Chili Peppers",
    "collectionId": 947701030,
    "collectionName": "Greatest Hits",
    "kind": "album",
    "type": "collection"
  },
  {
    "artistId": 889780,
    "artistName": "Red Hot Chili Peppers",
    "collectionId": 1109250450,
    "collectionName": "The Getaway",
    "kind": "album",
    "type": "collection"
  },
  {
    "artistId": 889780,
    "artistName": "Red Hot Chili Peppers",
    "collectionId": 945562992,
    "collectionName": "Stadium Arcadium",
    "kind": "album",
    "type": "collection"
  },
  {
    "artistId": 889780,
    "artistName": "Red Hot Chili Peppers",
    "collectionId": 450747622,
    "collectionName": "I'm With You",
    "kind": "album",
    "type": "collection"
  },
  {
    "artistId": 889780,
    "artistName": "Red Hot Chili Peppers",
    "collectionId": 635343671,
    "collectionName": "Mother's Milk",
    "kind": "album",
    "type": "collection"
  },
  {
    "artistId": 889780,
    "artistName": "Red Hot Chili Peppers",
    "collectionId": 948354739,
    "collectionName": "Greatest Hits",
    "kind": "album",
    "type": "collection"
  },
  {
    "artistId": 889780,
    "artistName": "Red Hot Chili Peppers",
    "collectionId": 208036484,
    "collectionName": "Dani California - EP",
    "kind": "album",
    "type": "collection"
  },
  {
    "artistId": 889780,
    "artistName": "Red Hot Chili Peppers",
    "collectionId": 947680622,
    "collectionName": "The Studio Album Collection 1991 - 2011",
    "kind": "album",
    "type": "collection"
  },
  {
    "artistId": 889780,
    "artistName": "Red Hot Chili Peppers",
    "collectionId": 948454039,
    "collectionName": "One Hot Minute (Deluxe Version)",
    "kind": "album",
    "type": "collection"
  },
  {
    "artistId": 889780,
    "artistName": "Red Hot Chili Peppers",
    "collectionId": 945575406,
    "collectionName": "Californication",
    "kind": "album",
    "type": "collection"
  },
  {
    "artistId": 889780,
    "artistName": "Red Hot Chili Peppers",
    "collectionId": 187113577,
    "collectionName": "iTunes Originals: Red Hot Chili Peppers",
    "kind": "album",
    "type": "collection"
  },
  {
    "artistId": 889780,
    "artistName": "Red Hot Chili Peppers",
    "collectionId": 208003044,
    "collectionName": "Tell Me Baby - EP",
    "kind": "album",
    "type": "collection"
  },
  {
    "artistId": 889780,
    "artistName": "Red Hot Chili Peppers",
    "collectionId": 207928114,
    "collectionName": "Snow (Hey Oh) - EP",
    "kind": "album",
    "type": "collection"
  },
  {
    "artistId": 889780,
    "artistName": "Red Hot Chili Peppers",
    "collectionId": 948446127,
    "collectionName": "Californication (Deluxe Version)",
    "kind": "album",
    "type": "collection"
  },
  {
    "artistId": 889780,
    "artistName": "Red Hot Chili Peppers",
    "collectionId": 522983999,
    "collectionName": "Rock & Roll Hall of Fame Covers - EP",
    "kind": "album",
    "type": "collection"
  },
  {
    "artistId": 889780,
    "artistName": "Red Hot Chili Peppers",
    "collectionId": 945581828,
    "collectionName": "Blood Sugar Sex Magik",
    "kind": "album",
    "type": "collection"
  },
  {
    "artistId": 889780,
    "artistName": "Red Hot Chili Peppers",
    "collectionId": 948438400,
    "collectionName": "By the Way (Deluxe Version)",
    "kind": "album",
    "type": "collection"
  },
  {
    "artistId": 889780,
    "artistName": "Red Hot Chili Peppers",
    "collectionId": 945578420,
    "collectionName": "By the Way",
    "kind": "album",
    "type": "collection"
  },
  {
    "artistId": 889780,
    "artistName": "Red Hot Chili Peppers",
    "collectionId": 142229949,
    "collectionName": "The Videos",
    "kind": "album",
    "type": "collection"
  },
  {
    "artistId": 889780,
    "artistName": "Red Hot Chili Peppers",
    "collectionId": 635338338,
    "collectionName": "The Uplift Mofo Party Plan",
    "kind": "album",
    "type": "collection"
  },
  {
    "artistId": 889780,
    "artistName": "Red Hot Chili Peppers",
    "collectionId": 945571209,
    "collectionName": "One Hot Minute",
    "kind": "album",
    "type": "collection"
  },
  {
    "artistId": 889780,
    "artistName": "Red Hot Chili Peppers",
    "collectionId": 635340314,
    "collectionName": "Freaky Styley",
    "kind": "album",
    "type": "collection"
  },
  {
    "artistId": 889780,
    "artistName": "Red Hot Chili Peppers",
    "collectionId": 938467544,
    "collectionName": "What Hits!?",
    "kind": "album",
    "type": "collection"
  },
  {
    "artistId": 889780,
    "artistName": "Red Hot Chili Peppers",
    "collectionId": 547123281,
    "collectionName": "Strange Man / Long Progression - Single",
    "kind": "album",
    "type": "collection"
  },
  {
    "artistId": 889780,
    "artistName": "Red Hot Chili Peppers",
    "collectionId": 948460531,
    "collectionName": "Blood Sugar Sex Magik (Deluxe Version)",
    "kind": "album",
    "type": "collection"
  },
  {
    "artistId": 175274090,
    "artistName": "God Is an Astronaut",
    "collectionId": 677899650,
    "collectionName": "Origins",
    "kind": "album",
    "type": "collection"
  },
  {
    "artistId": 175274090,
    "artistName": "God Is an Astronaut",
    "collectionId": 474509894,
    "collectionName": "God Is An Astronaut (Remastered)",
    "kind": "album",
    "type": "collection"
  },
  {
    "artistId": 175274090,
    "artistName": "God Is an Astronaut",
    "collectionId": 368735994,
    "collectionName": "Age Of The Fifth Sun",
    "kind": "album",
    "type": "collection"
  },
  {
    "artistId": 175274090,
    "artistName": "God Is an Astronaut",
    "collectionId": 474122432,
    "collectionName": "The End of the Beginning (Remastered)",
    "kind": "album",
    "type": "collection"
  },
  {
    "artistId": 175274090,
    "artistName": "God Is an Astronaut",
    "collectionId": 1009018992,
    "collectionName": "Helios / Erebus",
    "kind": "album",
    "type": "collection"
  },
  {
    "artistId": 175274090,
    "artistName": "God Is an Astronaut",
    "collectionId": 481699696,
    "collectionName": "All Is Violent, All Is Bright (Remastered)",
    "kind": "album",
    "type": "collection"
  },
  {
    "artistId": 175274090,
    "artistName": "God Is an Astronaut",
    "collectionId": 474113084,
    "collectionName": "Far from Refuge (Remastered)",
    "kind": "album",
    "type": "collection"
  },
  {
    "artistId": 1263315316,
    "artistName": "GhostMolly",
    "collectionId": 1263314993,
    "collectionName": "God Is an Astronaut - EP",
    "kind": "album",
    "type": "collection"
  },
  {
    "artistId": 175274090,
    "artistName": "God Is an Astronaut",
    "collectionId": 1345690216,
    "collectionName": "Epitaph",
    "kind": "album",
    "type": "collection"
  },
  {
    "artistId": 175274090,
    "artistName": "God Is an Astronaut",
    "collectionId": 819537566,
    "collectionName": "The Last March - Single",
    "kind": "album",
    "type": "collection"
  },
  {
    "artistId": 175274090,
    "artistName": "God Is an Astronaut",
    "collectionId": 491771172,
    "collectionName": "A Moment of Stillness (2011 Remastered Edition)",
    "kind": "album",
    "type": "collection"
  },
  {
    "artistId": 26115139,
    "artistName": "Carbon Based Lifeforms",
    "collectionId": 1004975441,
    "collectionName": "Twentythree",
    "kind": "album",
    "type": "collection"
  },
  {
    "artistId": 26115139,
    "artistName": "Carbon Based Lifeforms",
    "collectionId": 777662579,
    "collectionName": "Refuge (Original Motion Picture Soundtrack)",
    "kind": "album",
    "type": "collection"
  },
  {
    "artistId": 26115139,
    "artistName": "Carbon Based Lifeforms",
    "collectionId": 1091723656,
    "collectionName": "Alt:01",
    "kind": "album",
    "type": "collection"
  },
  {
    "artistId": 26115139,
    "artistName": "Carbon Based Lifeforms",
    "collectionId": 1014664485,
    "collectionName": "Hydroponic Garden (2015 Remaster)",
    "kind": "album",
    "type": "collection"
  },
  {
    "artistId": 26115139,
    "artistName": "Carbon Based Lifeforms",
    "collectionId": 1276016528,
    "collectionName": "Derelicts",
    "kind": "album",
    "type": "collection"
  },
  {
    "artistId": 26115139,
    "artistName": "Carbon Based Lifeforms",
    "collectionId": 976522606,
    "collectionName": "Interloper (2015 Remaster)",
    "kind": "album",
    "type": "collection"
  },
  {
    "artistId": 26115139,
    "artistName": "Carbon Based Lifeforms",
    "collectionId": 1037292876,
    "collectionName": "World of Sleepers (2015 Remaster)",
    "kind": "album",
    "type": "collection"
  },
  {
    "artistId": 26115139,
    "artistName": "Carbon Based Lifeforms",
    "collectionId": 1080934503,
    "collectionName": "Vla",
    "kind": "album",
    "type": "collection"
  },
  {
    "artistId": 26115139,
    "artistName": "Carbon Based Lifeforms",
    "collectionId": 1153090161,
    "collectionName": "Photosynthesis Remixes",
    "kind": "album",
    "type": "collection"
  },
  {
    "artistId": 26115139,
    "artistName": "Carbon Based Lifeforms",
    "collectionId": 1108615638,
    "collectionName": "Mos 6581 Remixes",
    "kind": "album",
    "type": "collection"
  },
  {
    "artistId": 26115139,
    "artistName": "Carbon Based Lifeforms",
    "collectionId": 627526814,
    "collectionName": "Irdial - Single",
    "kind": "album",
    "type": "collection"
  }
]