[
  {
    "author": "Philip K. Dick",
    "category": "Biography & Autobiography",
    "description": "Based on thousands of pages of typed and handwritten notes, journal entries, letters, and story sketches, The Exegesis of Philip K. Dick is the magnificent and imaginative final work of an author who dedicated his life to questioning the nature of reality and perception, the malleability of space and time, and the relationship between the human and the divine. Edited and introduced by Pamela Jackson and Jonathan Lethem, this will be the definitive presentation of Dick's brilliant, and epic, final work. In The Exegesis, Dick documents his eight-year attempt to fathom what he called \"2-3-74\", a postmodern visionary experience of the entire universe \"transformed into information\". In entries that sometimes ran to hundreds of pages, Dick tried to write his way into the heart of a cosmic mystery that tested his powers of imagination and invention to the limit, adding to, revising, and discarding theory after theory, mixing in dreams and visionary experiences as they occurred, and pulling it all together in three late novels known as the VALIS trilogy. In this abridgment, Jackson and Lethem serve as guides, taking the reader through the Exegesis and establishing connections with moments in Dick's life and work.",
    "id": "bz_NF-oYDowC",
    "language": "en",
    "publisher": "Hachette UK",
    "term": "Philip K Dick",
    "title": "The Exegesis of Philip K Dick"
  },
  {
    "author": "David T. Fortin",
    "category": "Architecture",
    "description": "The home is one of our most enduring human paradoxes and is brought to light tellingly in science-fiction (SF) writing and film. However, while similarities and crossovers between architecture and SF have proliferated throughout the past century, the home is often overshadowed by the spectacle of 'otherness'. The study of the familiar (home) within the alien (SF) creates a unique cultural lens through which to reflect on our current architectural condition. SF has always been linked with alienation; however, the conditions of such alienation, and hence notions of home, have evidently changed. There is often a perceived comprehension of the familiar that atrophies the inquisitive and interpretive processes commonly activated when confronting the unfamiliar. Thus, by utilizing the estranging qualities of SF to look at a concept inherently linked to its perceived opposite - the home - a unique critical analysis with particular relevance for contemporary architecture is made possible.",
    "id": "u0-oDQAAQBAJ",
    "language": "en",
    "publisher": "Routledge",
    "term": "Philip K Dick",
    "title": "Architecture and Science-Fiction Film"
  },
  {
    "author": "Jason P. Vest",
    "category": "Literary Criticism",
    "description": "Examines the first eight cinematic adaptations of Dick's fiction in light of their literary sources.",
    "id": "Ry-JGnxXPBQC",
    "language": "en",
    "publisher": "U of Nebraska Press",
    "term": "Philip K Dick",
    "title": "Future Imperfect"
  },
  {
    "author": "Umberto Rossi",
    "category": "Literary Criticism",
    "description": "Philip K. Dick was one of the most popular science fiction novelists of the 20th century, but the contradictory and wily writer has troubled critics who attempt encompassing explanations of his work. This book examines Dick’s writing through the lens of ontological uncertainty, providing a comparative map of his oeuvre, tracing both the interior connections between books and his allusive intertextuality. Topics covered include time travel, alternate worlds, androids and simulacra, finite subjective realities and schizophrenia. Twenty novels are explored in detail, including titles that have received scant critical attention. Some of his most important short stories and two of his realist novels are also examined, providing a general introduction to Dick’s body of work.",
    "id": "Xratckpa_mwC",
    "language": "en",
    "publisher": "McFarland",
    "term": "Philip K Dick",
    "title": "The Twisted Worlds of Philip K. Dick"
  },
  {
    "author": "Philip K. Dick",
    "category": "Fiction",
    "description": "Gather Yourselves Together is one of Philip K. Dick’s earliest novels, written when he was just twenty-four years old. It tells the story of three Americans left behind in China by their employer, biding their time as the Communists advance. As they while away the days, both the young and naïve Carl Fitter and the older and worldly Verne Tildon vie for the affections of Barbara Mahler, a woman who may not be so tough-as-nails as she acts. But Carl’s innocence and Verne’s boorishness could end up driving Barbara away from both.",
    "id": "Dfzznvl1e6kC",
    "language": "en",
    "publisher": "Houghton Mifflin Harcourt",
    "term": "Philip K Dick",
    "title": "Gather Yourselves Together"
  },
  {
    "author": "Philip K. Dick",
    "category": "Fiction",
    "description": "“From the stuff of space opera, Dick spins a deeply unsettling existential horror story, a nightmare you’ll never be sure you’ve woken up from.”—Lev Grossman, Time Glen Runciter runs a lucrative business—deploying his teams of anti-psychics to corporate clients who want privacy and security from psychic spies. But when he and his top team are ambushed by a rival, he is gravely injured and placed in “half-life,” a dreamlike state of suspended animation. Soon, though, the surviving members of the team begin experiencing some strange phenomena, such as Runciter’s face appearing on coins and the world seeming to move backward in time. As consumables deteriorate and technology gets ever more primitive, the group needs to find out what is causing the shifts and what a mysterious product called Ubik has to do with it all. “More brilliant than similar experiments conducted by Pynchon or DeLillo.”—Roberto Bolaño",
    "id": "ZEyn5Gl_sYUC",
    "language": "en",
    "publisher": "Houghton Mifflin Harcourt",
    "term": "Philip K Dick",
    "title": "Ubik"
  },
  {
    "author": "Philip K. Dick",
    "category": "Fiction",
    "description": "Le mouton n’était pas mal, avec sa laine et ses bêlements plus vrais que nature – les voisins n’y ont vu que du feu. Mais il arrive en fin de carrière : ses circuits fatigués ne maintiendront plus longtemps l’illusion de la vie. Il va falloir le remplacer. Pas par un autre simulacre, non, par un véritable animal. Deckard en rêve, seulement ce n’est pas avec les maigres primes que lui rapporte la chasse aux androïdes qu’il parviendra à mettre assez de côté. Holden, c’est lui qui récupère toujours les boulots les plus lucratifs – normal, c’est le meilleur. Mais ce coup-ci, ça n’a pas suffi. Face aux Nexus-6 de dernière génération, même Holden s’est fait avoir. Alors, quand on propose à Deckard de reprendre la mission, il serre les dents et signe. De toute façon, qu’a-t-il à perdre ?",
    "id": "YC4tDwAAQBAJ",
    "language": "fr",
    "publisher": "J'ai Lu",
    "term": "Philip K Dick",
    "title": "Blade Runner"
  },
  {
    "author": "Philip K. Dick",
    "category": "Fiction",
    "description": "Selected Stories of Philip K. Dick contains twenty-one of Dick’s most dazzling and resonant stories, which span his entire career and show a world-class writer working at the peak of his powers. In “The Days of Perky Pat,” people spend their time playing with dolls who manage to live an idyllic life no longer available to the Earth’s real inhabitants. “Adjustment Team” looks at the fate of a man who by mistake has stepped out of his own time. In “Autofac,” one community must battle benign machines to take back control of their lives. And in “I Hope I Shall Arrive Soon,” we follow the story of one man whose very reality may be nothing more than a nightmare. The collection also includes such classic stories as “The Minority Report,” the basis for the Steven Spielberg movie, and “We Can Remember It for You Wholesale,” the basis for the film Total Recall. With an introduction by Jonathan Lethem, Selected Stories of Philip K. Dick is a magnificent distillation of one of American literature's most searching imaginations.",
    "id": "ie0Vw7ygOj4C",
    "language": "en",
    "publisher": "Houghton Mifflin Harcourt",
    "term": "Philip K Dick",
    "title": "Selected Stories of Philip K. Dick"
  },
  {
    "author": "Jason P. Vest",
    "category": "Literary Criticism",
    "description": "From his 1952 short story 'Roog' to the novels The Divine Invasion and VALIS, few authors have had as great of an impact in the latter half of the 20th century as Philip K. Dick. In The Postmodern Humanism of Philip K. Dick, Jason Vest explores the work of this prolific, subversive, and mordantly funny science-fiction writer. He examines how Dick adapted the conventions of science fiction and postmodernism to reflect humanist concerns about the difficulties of maintaining identity, agency, and autonomy in the latter half of the 20th century. In addition to an extensive analysis of the novel Now Wait for Last Year, Vest makes intellectually provocative comparisons between Dick and the works of Franz Kafka, Jorge Luis Borges, and Italo Calvino. He offers a detailed examination of Dick's literary relationship to all three authors, illuminating similarities between Dick and Kafka that have not previously been discussed, as well as similarities between Dick and Borges that scholars frequently note but fail to explore in detail. Like Kafka, Borges, and Calvino, Dick employs fantastic, unreal, and visionary fiction to reflect the disruptions, dislocations, and depressing realities of twentieth-century life. By comparing him to these other writers, Vest demonstrates that Dick's fiction is a fascinating barometer of postmodern American life even as it participates in an international tradition of visionary literature.",
    "id": "zbiw0ADlGhQC",
    "language": "en",
    "publisher": "Scarecrow Press",
    "term": "Philip K Dick",
    "title": "The Postmodern Humanism of Philip K. Dick"
  },
  {
    "author": "Philip K. Dick",
    "category": "Robots",
    "description": "Un blade runner, c'est un tueur chargé d'exterminer les androïdes qui s'infiltrent sur terre. Et Rick est le meilleur blade runner de la côte Ouest. Ce qui ne l'empêche pas d'être un tendre : il rêve de remplacer un jour son simulacre (électrique) de mouton par un vrai ! Hors de prix sur une planète où s'éteint la vie animale ! Aussi quand on lui propose une somme fabuleuse pour éliminer de dangereux Nexus 6 signalés en Californie, il fonce... Mais, face à lui, surgit la très belle Rachel. Femme ou androïde ? L'aime-t-il ? Peut-il l'aimer ?",
    "id": "xxZoSgAACAAJ",
    "language": "fr",
    "publisher": "J'ai Lu",
    "term": "Philip K Dick",
    "title": "Blade runner"
  },
  {
    "author": "Philip K. Dick",
    "category": "Fiction",
    "description": "Imagine an advanced spacecraft powered by the human brain. That's the remarkable technology at the heart of this fascinating short story by science fiction mastermind Philip K. Dick. A professor nearing the end of his natural lifespan donates his brain to the cutting-edge research effort -- but will he ultimately follow along with the plan?",
    "id": "8aC5f8diOe4C",
    "language": "en",
    "publisher": "The Floating Press",
    "term": "Philip K Dick",
    "title": "Mr. Spaceship"
  },
  {
    "author": "Laurence A. Rickels",
    "category": "Literary Criticism",
    "description": "\"Aside from its perfect fit of critic and subject, Laurence A. Rickels's book provides the most thorough and exhaustive reading of Philip K. Dick's literary work that exists. He goes through all the novels literally, both the science fiction works and the so-called mainstream novels Dick did not publish in his lifetime. The reader of science fiction should welcome a book like this, which is both knowledgeable of the SF tradition tradition and creatively analytical. I could not put this book down once I began to read it\".---George Slusser, University of California, Riverside --",
    "id": "x2sZ3ZbLd4wC",
    "language": "en",
    "publisher": "U of Minnesota Press",
    "term": "Philip K Dick",
    "title": "I Think I Am"
  },
  {
    "author": "Philip K. Dick",
    "category": "Fiction",
    "description": "Rendu célèbre par le cinéma et la télévision (Blade Runner, Total Recall, Minority Report, Le maître du Haut Château...), Philip K. Dick est l’auteur de plus de cent vingt nouvelles dans lesquelles il explore les thèmes qui l’ont hanté toute sa vie – l’intelligence artificielle, les mondes parallèles, les simulacres, la manipulation –, en réponse aux deux interrogations fondamentales de son œuvre : Qu’est-ce que l’humain? Qu’est-ce que la réalité? Le présent recueil rassemble les dix textes courts qui ont inspiré la série Philip K. Dick’s Electric Dreams.",
    "id": "1rFZDwAAQBAJ",
    "language": "fr",
    "publisher": "J'ai Lu",
    "term": "Philip K Dick",
    "title": "Electric Dreams"
  },
  {
    "author": "D. E. Wittkower",
    "category": "Philosophy",
    "description": "Probes the visionary genius who created Bladerunner, Minority Report, and The Adjustment Bureau. These books entertain as well as teach philosophical wisdom by looking closely at entertainment icons. In each volume of this best-selling series, a team of sharp philosophical brains puts one pop culture icon (movie, TV show, or other topic) under the microscope, exposing its hidden philosophical implications in an instantaly readable way.",
    "id": "70ITuCtlnc0C",
    "language": "en",
    "publisher": "Open Court Publishing",
    "term": "Philip K Dick",
    "title": "Philip K. Dick and Philosophy"
  },
  {
    "author": "Samuel J. Umland",
    "category": "Literary Criticism",
    "description": "Contains eleven essays and a bibliography, re-examining Dick's entire oeuvre as prefiguring by decades the philosophical skepticism of postmodernism, and constituting a coherent cultural critique of post-World War II America.",
    "id": "_uIUYASPfBsC",
    "language": "en",
    "publisher": "Greenwood Publishing Group",
    "term": "Philip K Dick",
    "title": "Philip K. Dick"
  },
  {
    "author": "Jean-Clet MARTIN",
    "category": "Social Science",
    "description": "« Un livre de philosophie doit être une sorte de science-fiction », écrit Gilles Deleuze. Or la science-fiction elle-même, dès la fin du XIXe siècle avec E. P. Mitchell, prend Hegel comme modèle d'une histoire abordée à travers une logique contradictoire. Jean-Clet Martin, après sa lecture novatrice de la Phénoménologie de l'esprit, relève donc ici un pari audacieux : faire entrer l'immense champ de la science-fiction dans le geste le plus inventif de la philosophie moderne. C'est à bord du vaisseau La Logique de Hegel qu'il entreprend pour cela, d'une écriture alerte et imagée, de nous faire voyager à travers une multitude d'univers, ceux de Van Vogt, de H. G. Wells ou de Lovecraft, mais aussi d'Asimov, de Philip K. Dick, et de tant d'autres. S'appuyant sur les trois parties de La Logique – Être, Essence, Concept –, Jean-Clet Martin décrit avec minutie les grandes articulations des oeuvres, littéraires et filmiques. Il nous démontre que c'est toute l'histoire de la science-fiction qui se nourrit aux paradoxes de la logique. Au-delà de Dick, elle trouve chez Clarke, Baxter, Robinson, Wilson, ou Poul Anderson, les embrayeurs d'un monde pluriel, entraînant nos vies sur des devenirs très étrangers au temps chronologique. Par ce voyage vertigineux au coeur des fictions spéculatives on découvre que de nombreuses structures narratives, de nombreux concepts et agencements entretiennent des liens étroits, quasiment en miroir, avec La Logique de Hegel, comme si celle-ci, à travers sa phénoménale créativité, appartenait tant au monde de la science-fiction qu'à celui de la philosophie.",
    "id": "b8c3DwAAQBAJ",
    "language": "fr",
    "publisher": "Les Impressions nouvelles",
    "term": "Philip K Dick",
    "title": "Logique de la science-fiction"
  },
  {
    "author": "Angus Ellis Taylor",
    "category": "Literary Criticism",
    "id": "GTFXAAAAYAAJ",
    "language": "en",
    "publisher": "Baltimore, Md. : T-K Graphics",
    "term": "Philip K Dick",
    "title": "Philip K. Dick & The Umbrella of Light"
  },
  {
    "author": "Philip K. Dick",
    "category": "Fiction",
    "description": "“I have never seen [its] theme handled with greater technical dexterity or given more psychological meaning.”—Fantasy and Science Fiction When a routine tour of a particle accelerator goes awry, Jack Hamilton and the rest of his tour group find themselves in a world ruled by Old Testament morality, where the smallest infraction can bring about a plague of locusts. Escape from that world is not the end, though, as they plunge into a Communist dystopia and a world where everything is an enemy. Philip K. Dick was aggressively individualistic and no worldview is safe from his acerbic and hilarious take downs. Eye in the Sky blends the thrills and the jokes to craft a startling morality lesson hidden inside a comedy.",
    "id": "2-GfH6JhpD0C",
    "language": "en",
    "publisher": "Houghton Mifflin Harcourt",
    "term": "Philip K Dick",
    "title": "Eye in the Sky"
  },
  {
    "author": "Philip K. Dick",
    "category": "Fiction",
    "description": "Rien n’avait préparé Shadrach Jones à voir arriver le roi des elfes et sa suite au grand complet dans sa station-service. Et pourtant, aussi incroyable que cela paraisse, il est bien là, devant lui, et plutôt mal en point. Les derniers mutants qui menacent encore la Terre sont traqués à mort. Mais Cris Johnson, cet homme intégralement doré et à la beauté divine, peut-il être un monstre? Ernest Elwood est plutôt rêveur, ces derniers temps. Rien d’autre ne semble l’intéresser que la construction de son bateau, comme s’il était manipulé. En neuf nouvelles, Philip K. Dick montre une fois de plus toute l’étendue de son talent, qu’il aborde la science-fiction, le fantastique et même, sans doute pour la seule fois, la fantasy.",
    "id": "xhpyZgJXJqgC",
    "language": "fr",
    "publisher": "Editions Gallimard",
    "term": "Philip K Dick",
    "title": "Le roi des elfes"
  },
  {
    "author": "Brian Munoz",
    "category": "Philosophy",
    "description": "L'originalité de ce roman de Philip K. Dick repose sur une question simple et troublante : comment faire la différence entre un robot humanoïde et un homme ? Cette question sert de fil rouge au récit. Elle met en perspective notre propre humanité toujours tentée par le dépassement de ses propres limites.",
    "id": "YNJCDwAAQBAJ",
    "language": "fr",
    "publisher": "BoD - Books on Demand",
    "term": "Philip K Dick",
    "title": "Blade Runner de Philip K. Dick"
  },
  {
    "author": "Philip K. Dick",
    "category": "Fiction",
    "description": "Collected together for the first time, these wild stories--the inspiration for the highly anticipated new TV show--present a master of the form at work, combining out-of-this world ideas with a keen understanding of just what makes us all human.",
    "id": "sz87DwAAQBAJ",
    "language": "en",
    "publisher": "Houghton Mifflin Harcourt",
    "term": "Philip K Dick",
    "title": "Philip K. Dick's Electric Dreams"
  },
  {
    "author": "A. Dunst, S. Schlensag",
    "category": "Literary Criticism",
    "description": "As the first essay collection dedicated to Philip K. Dick in two decades, this volume breaks new ground in science fiction scholarship and brings innovative critical perspectives to the study of one of the twentieth century's most influential authors.",
    "id": "5L-_BwAAQBAJ",
    "language": "en",
    "publisher": "Springer",
    "term": "Philip K Dick",
    "title": "The World According to Philip K. Dick"
  },
  {
    "id": "slmylXYU7skC",
    "language": "en",
    "publisher": "Ultramarine Publishing",
    "term": "Philip K Dick",
    "title": "A Checklist of Philip K. Dick"
  },
  {
    "author": "Philip K. Dick",
    "category": "Fiction",
    "description": "Nobody blends satire and science fiction like renowned luminary of the genre Philip K. Dick. This short but utterly memorable tale tells the story of a man who is utterly convinced that the world is being overrun by aliens. Is he correct, or wildly off-base? Read \"The Eyes Have It\" to find out.",
    "id": "MK5_sGqMI9wC",
    "language": "en",
    "publisher": "The Floating Press",
    "term": "Philip K Dick",
    "title": "The Eyes Have It"
  },
  {
    "author": "Christopher Palmer",
    "category": "Literary Criticism",
    "description": "Once solely the possession of fans and buffs, the SF author Philip K Dick is now finding a much wider audience, as the success of the films Blade Runner and Minority Report shows. The kind of world he predicted in his funny and frightening novels and stories is coming closer to most of us: shifting realities, unstable relations, uncertain moralities. Philip K. Dick: Exhilaration and Terror of the Postmodern examines a wide range of Dick's work, including his short stories and posthumously published realist novels. Christopher Palmer analyzes the puzzling and dazzling effects of Dick's fiction, and argues that at its heart is a clash between exhilarating possibilities of transformation, and a frightening lack of ethical certainties. Dick's work is seen as the inscription of his own historical predicament, the clash between humanism and postmodernism being played out in the complex forms of the fiction. The problem is never resolved, but Dick's ways of imagining it become steadily more ingenious and challenging.",
    "id": "fsaGaFoH8UYC",
    "language": "en",
    "publisher": "Liverpool University Press",
    "term": "Philip K Dick",
    "title": "Philip K. Dick"
  },
  {
    "author": "Bernard Werber",
    "category": "Fiction",
    "description": "Pendant les quelques secondes nécessaires pour lire cette seule phrase vont naître sur terre quarante humains mais surtout sept cents millions de fourmis. Depuis plus de cent millions d'années avant nous, elles sont là, réparties en légions, en cités, en empires sur toute la surface du globe. EIles ont créé une civilisation parallèle, bâti de véritables royaumes, inventé les armes les plus sophistiquées, conçu tout un art de la guerre et de la cité que nous sommes loin d'égaler, maîtrisé une technologie stupéfiante. Elles ont leur propre Attila, Christophe Colomb, Jules César, Machiavel ou Léonard de Vinci. Le jour des fourmis approche. Le roman pas comme les autres nous dit pourquoi et nous plonge de manière saisissante dans un univers de crimes, de monstruosités, de guerres tel que nous n'en avons jamais connu. Au-delà de toute imagination. II nous fait entrer dans le monde des infra-terrestres. Attention où vous mettrez les pieds. Après avoir lu ce roman fascinant, vous risquez de ne plus regarder la réalité de la même manière.",
    "id": "YHAGLByIK7oC",
    "language": "fr",
    "publisher": "Albin Michel",
    "term": "Bernard Werber",
    "title": "Les Fourmis"
  },
  {
    "author": "Bernard Werber",
    "category": "Fiction",
    "description": "Après avoir visité les mondes souterrains dans sa trilogie des Fourmis et l'au-delà dans les Thanatonautes, Bernard Werber se lance sur les traces du fameux chaînon manquant, le « père de nos pères ». Une course poursuite haletante où l'on rencontre : une jeune reporter délurée - ex-cambrioleuse -, un journaliste à la retraite - obèse mais fin limier -, un spécialiste de la préhistoire qui en savait trop, un club de savants passionnés, une charcutière industrielle, une star du X, quelques primates avisés et une dame phacochère qui n'a pas peur des alliances contre nature... Voyage aux sources de l'humanité, enquête aux mille rebondissements, hypothèses scientifiques stupéfiantes sur le mystère de nos origines... Werber se fait une fois encore explorateur des frontières de l'inconnu. Suspense, humour, science, aventure un thriller paléontologique qui pourrait bien changer notre vision du monde.",
    "id": "bPVE-Sl-dM8C",
    "language": "fr",
    "publisher": "Albin Michel",
    "term": "Bernard Werber",
    "title": "Le Père de nos pères"
  },
  {
    "author": "Bernard Werber",
    "category": "Fiction",
    "description": "« Et vous, à la place de Dieu, comment referiez-vous l'Histoire ? » Après le succès de Nous, les dieux (300 000 ex vendus), la saga continue !",
    "id": "xDaPfhQBRfQC",
    "language": "fr",
    "publisher": "Albin Michel",
    "term": "Bernard Werber",
    "title": "Le Souffle des Dieux"
  },
  {
    "author": "Bernard Werber",
    "category": "Fiction",
    "description": "Comment créer un Univers ? Comment rêvent les Dauphins ? Comment réussir une Mayonnaise ? D'où viennent les Légendes ? D'où viennent les signes du Zodiaque ? Quel lien entre Spiritualité et Astrophysique ? Quel lien entre Tarots et Alchimie ? Que représentent réellement la forme des Chiffres que nous utilisons ? Le paradoxe de la Reine Rouge ? La civilisation d'Harappa ? Les mystères d'Éleusis ? Qui étaient réellement Archimède, Néron, Conan Doyle, Pythagore, la papesse Jeanne ?... La Nouvelle encyclopédie du savoir relatif et absolu répond à toutes les questions étranges que vous ne vous êtes peut-être jamais posées !",
    "id": "984t212s2L4C",
    "language": "fr",
    "publisher": "Albin Michel",
    "term": "Bernard Werber",
    "title": "Nouvelle encyclopédie du savoir relatif et absolu"
  },
  {
    "author": "Bernard Werber",
    "category": "Fiction",
    "description": "Nous sommes à l’ère de la deuxième humanité. Il y en a eu une avant. Il y en aura une... après. En Antarctique, le paléontologue Charles Wells et son expédition découvrent, tout au fond d un lac souterrain, les restes de squelettes humains d environ 17 mètres de long. A Paris, le projet d’étude de son fils David sur le rapetissement humain est sélectionné par un tout nouveau programme de recherches, consacré à « l’évolution de notre espèce ». Wells père a retrouvé l’ancienne humanité, Wells fils entrevoit la prochaine humanité, mais ils sont loin encore de savoir la vérité. C’est grâce au soutien et à la passion amoureuse d’une femme, Aurore Kammerer, spécialiste dans la connaissance des Amazones, que sera révélé le plus surprenant des secrets et réalisée la plus folle des expériences, modifiant à jamais l’avenir des générations futures.",
    "id": "f4A0Pk_4Lj4C",
    "language": "fr",
    "publisher": "Albin Michel",
    "term": "Bernard Werber",
    "title": "Troisième humanité"
  },
  {
    "author": "Bernard Werber",
    "category": "Fiction",
    "description": "Imaginez un monde uniquement peuplé de femmes, où les hommes ne sont plus qu'une légende... Imaginez un monde où il est interdit de se souvenir du passé, où les gens n'ont qu'un seul intérêt : le cinéma... Imaginez un humoriste qui partirait à la recherche du lieu où naissent les blagues anonymes... Futurs possibles, passés probables... 17 histoires sous forme de contes, légendes ou fables. 17 histoires où les horizons nouveaux côtoient les secrets enfouis. 17 histoires fantastiques pour frémir, rêver ou sourire.",
    "id": "cl7q7zXlSPQC",
    "language": "fr",
    "publisher": "Albin Michel",
    "term": "Bernard Werber",
    "title": "Paradis sur mesure"
  },
  {
    "author": "Bernard Werber",
    "category": "Fiction",
    "description": "Que pensent les anges de nous ?Quelle est leur vision de notre espèce grouillant sur la terre ? Bernard Werber nous fait découvrir le paradis comme un nouveau territoire où des êtres qui nous veulent du bien essaient de nous sauver malgré nous. Aussi original que Les Fourmis, aussi troublant que Les Thanatonautes, aussi passionnant que Le Père de nos pères, L'Empire des anges nous convie à un voyage inédit dans l'au-delà.Bernard Werber y confirme un talent unique de romancier d'aujourd'hui, internationalement reconnu, et n'hésite pas à mettre à l'épreuve de l'aventure romanesque comme des réalités scientifiques ou philosophiques, ses surprenantes intuitions.L'Empire des anges n'est-il pas effectivement le meilleur endroit pour observer l'humanité en marche ?Le Paradis n'est-il pas la dernière frontière à explorer après le ciel, la terre, la mer et les étoiles ?",
    "id": "AJpy8SynjmUC",
    "language": "fr",
    "publisher": "Albin Michel",
    "term": "Bernard Werber",
    "title": "L'Empire des anges"
  },
  {
    "author": "Bernard Werber",
    "category": "Fiction",
    "description": "Et si chaque objet de votre quotidien avait le pouvoir de parler et d'interagir avec vous ? Qui est vraiment Luc, le propriétaire de ce réveille-matin ô combien joyeux et de ce presse-agrume qui s'adresse à lui tel un majordome inquiet ? Cette nouvelle est extraite du livre L'arbre des possibles. Temps de lecture estimé : à partir de 5 minutes.",
    "id": "1iRPCwAAQBAJ",
    "language": "fr",
    "publisher": "Albin Michel",
    "term": "Bernard Werber",
    "title": "Un monde trop bien pour moi"
  },
  {
    "author": "Bernard Werber",
    "category": "Fiction",
    "description": "Le « phénomène Werber » continue. Après Les Fourmis et Le Jour des fourmis , deux best-sellers au succès sans précédent dans le monde entier (traduits dans 17 langues des Etats-Unis à la Corée), voici Les Thanatonautes : la grande épopée moderne qui perce jusqu'au mystère de la mort. Nourri d'informations scientifiques souvent inédites, des textes sacrés et initiatiques les plus secrets des principales religions depuis le fond des âges, Bernard Werber nous entraîne à la découverte du continent ultime, au-delà de notre imaginaire. En suivant les Thanatonautes, vous connaîtrez des rêves et des terreurs insondables, vous subirez les lois d'un univers étrange, où se cache l'énigme qui hante les hommes depuis toujours... Jamais personne n'est allé aussi loin que les Thanatonautes. Ils ont exploré la vie après la vie. L'odyssée la plus stupéfiante de tous les temps.",
    "id": "6NgMMaPxhdEC",
    "language": "fr",
    "publisher": "Albin Michel",
    "term": "Bernard Werber",
    "title": "Les Thanatonautes"
  },
  {
    "author": "Bernard Werber",
    "category": "Fiction",
    "description": "Ants came to this planet long before man. Since then they have developed one of the most intricate civilizations imaginable – a civilization of great richness and technological brilliance. During the few seconds it takes you to read this sentence, some 700 milli0on ants will be born on earth... Edmond Wells had studied ants for years: he knew of the power which existed in their hidden world. On his death, he leaves his apartment to his nephew Jonathan with one proviso: that he must not descend beyond the cellar door. But when the family’s dog escapes down the cellar steps, Jonathan has little alternative but to follow. Innocently he enters the world of the ant, whose struggle for existence forces him to reassess man’s place in the cycle of nature. It is an experience that will alter his life for ever... Empire of the Ants is an extraordinary achievement. It takes you inside the ants’ universe and reveals it to be a highly organised world, as complex and relentless as human society and even more brutal.",
    "id": "Jdvm-OImU8oC",
    "language": "en",
    "publisher": "Random House",
    "term": "Bernard Werber",
    "title": "Empire Of The Ants"
  },
  {
    "author": "Bernard Werber",
    "category": "Fiction",
    "description": "Vingt petites histoires sous forme de contes, de légendes, de mini polars. Bernard Werber nous offre avec L'Arbre des possibles des récits fantastiques où les dieux vont à l'école pour apprendre à gouverner les peuples, où les objets sont soudainement remplacés par leurs noms, où les gens ne savent compter que jusqu'à 20, où l'on part en vacances au XVIIe siècle sans oublier de se faire vacciner contre la peste...Foisonnement d'idées poétiques, de décors grandioses, de personnages drôles et truculents, ce livre révèle un nouvel aspect de l'oeuvre de l'auteur des Fourmis et de L'Empire des anges.",
    "id": "3aa_o3kCkZsC",
    "language": "fr",
    "publisher": "Albin Michel",
    "term": "Bernard Werber",
    "title": "L'Arbre des possibles et autres histoires"
  },
  {
    "author": "Bernard Werber",
    "category": "Fiction",
    "description": "Il est l’un des plus grands humoristes français et il veut tout plaquer la veille d’une représentation devant le Président de la République : Tristan en a marre des faux-semblants, de ce monde de paillettes. Parce qu’il n’y a pas toujours de quoi rire, la seule issue est de mettre en scène la blague ultime... Cette nouvelle est extraite du livre Paradis sur mesure.",
    "id": "FUYSDgAAQBAJ",
    "language": "fr",
    "publisher": "Albin Michel",
    "term": "Bernard Werber",
    "title": "Là où naissent les blagues"
  },
  {
    "author": "Bernard Werber, Alain Mounier",
    "category": "Comics & Graphic Novels",
    "description": "Amandine est une jeune femme comblée : un job qui lui plaît, un petit ami mignon tout plein, et plein de copains virtuels sur Internet. Mais ce bonheur tranquille va basculer en l'espace d'une journée : d'abord, elle démissionne et, quand elle rentre chez elle, elle trouve son petit ami en pleins ébats amoureux. Ses nerfs lâchent, tout s’effondre, et viennent alors la déprime et le mal-être. Amandine décide d'en finir et se jette dans la Seine... mais quelqu'un qui l'a vue sauter la sauve in extremis. Quelques tentatives de suicide plus tard, elle se décide à contacter « www.sos.dprim.fr » dont les publicités sont affichées sur tous les murs de la capitale. Là, le site lui répond que son cas est inhabituel, et qu'elle devraitessayer un de leurs services parallèles. C'est comme cela qu'elle souscrit à « EXIT », dont le slogan semble totalement adapté à ses souhaits : « Vous avez raté votre vie ? Réussissez votre mort ! » Un concept audacieux et provocateur (une organisation occulte prend en charge le suicide de ceux qui ont assez vécu mais veulent partir avec un dernier sursaut d’émotions fortes), pour un thriller machiavélique signé Bernard Werber, l’écrivain français qui a connu un succès retentissant avec son célèbre cycle des Fourmis.",
    "id": "pqimDgAAQBAJ",
    "language": "fr",
    "publisher": "Glénat BD",
    "term": "Bernard Werber",
    "title": "Exit -"
  },
  {
    "author": "Bernard Werber",
    "category": "Fiction",
    "description": "D'un côté, les fourmis. Elles se demandent si nous sommes des monstres géants ou des dieux infinis. De l'autre, nous, les hommes. Au mieux, nous sommes indifférents à ces êtres minuscules. Au pire, nous nous acharnons à les écraser. Pourtant, après des millénaires d'incompréhension, les deux civilisations les plus évoluées de la planète vont peut-être se rencontrer, se comprendre, se connaître enfin.",
    "id": "CPNHcHPaGpAC",
    "language": "fr",
    "publisher": "Albin Michel",
    "term": "Bernard Werber",
    "title": "La Révolution des fourmis"
  },
  {
    "author": "Bernard Werber",
    "category": "Fiction",
    "description": "« J'aurais été capable de décrire chaque plat dans chaque assiette de la taverne, chaque visage, chaque vêtement, chaque rue et chaque maison. Comment peut-on projeter autant de précision si le monde est complétement imaginaire ? » Lors de séances d'hypnose, un homme revoit une de ses vies antérieures, lorsqu'il a rencontré le grand amour. Un amour inoubliable et qu'il se met en quête de retrouver, des années plus tard... Fantasme ou rêve inaccessible ? Bernard Werber explore la face cachée de nos vies. Cette nouvelle est extraite du livre Paradis sur mesure. Temps de lecture estimé : à partir de 25 minutes.",
    "id": "7ceMCgAAQBAJ",
    "language": "fr",
    "publisher": "Albin Michel",
    "term": "Bernard Werber",
    "title": "Un amour en Atlantide"
  },
  {
    "author": "Nathalie Roland, Johanna Biehler, lePetitLitteraire.fr,",
    "category": "Fiction",
    "description": "Décryptez Les Fourmis de Bernard Werber avec l'analyse du PetitLitteraire.fr ! Que faut-il retenir des Foumis, le bestseller animalier de la littérature française contemporaine ? Retrouvez tout ce que vous devez savoir sur cette œuvre dans une fiche de lecture complète et détaillée. Vous trouverez notamment dans cette fiche : • Un résumé complet • Une présentation des personnages principaux tels que les fourmis et les humains • Une analyse des spécificités de l’œuvre : un roman au(x) genre(s) multiple(s), le style de Bernard Werber, des lieux réels et symboliques, et une réflexion sur la place et le comportement de l'homme Une analyse de référence pour comprendre rapidement le sens de l’œuvre. LE MOT DE L’ÉDITEUR : « Dans cette nouvelle édition de notre analyse des Fourmis (2017), avec Nathalie Roland, nous fournissons des pistes pour décoder ce roman animalier au succès considérable. Notre analyse permet de faire rapidement le tour de l'œuvre et d'aller au-delà des clichés. » Stéphanie FELTEN À propos de la collection LePetitLitteraire.fr : Plébiscité tant par les passionnés de littérature que par les lycéens, LePetitLittéraire.fr est considéré comme une référence en matière d’analyse d'œuvres classiques et contemporaines. Nos analyses, disponibles au format papier et numérique, ont été conçues pour guider les lecteurs à travers la littérature. Nos auteurs combinent théories, citations, anecdotes et commentaires pour vous faire découvrir et redécouvrir les plus grandes œuvres littéraires. LePetitLittéraire.fr est reconnu d'intérêt pédagogique par le ministère de l'Éducation. Plus d'informations sur http://www.lepetitlitteraire.fr",
    "id": "snMnDwAAQBAJ",
    "language": "fr",
    "publisher": "lePetitLitteraire.fr",
    "term": "Bernard Werber",
    "title": "Les Fourmis de Bernard Werber (Analyse de l'oeuvre)"
  },
  {
    "author": "Bright Summaries,",
    "category": "Fiction",
    "description": "In this clear and detailed reading guide, we’ve done all the hard work for you! Empire of the Ants by Bernard Werber is a fascinating novel in which disappearances in the world of the ants as well as in the world of the humans prompt the protagonists from both species to embark on adventures that will bring them closer. Find out everything you need to know about Empire of the Ants in just a few minutes! This practical and insightful reading guide includes: • A complete plot summary • Character studies • Key themes and symbols • Questions for further reflection Why choose BrightSummaries.com? Available in print and digital format, our publications are designed to accompany you in your reading journey. The clear and concise style makes for easy understanding, providing the perfect opportunity to improve your literary knowledge in no time. Shed new light on the very best of literature with BrightSummaries.com!",
    "id": "dd6kCwAAQBAJ",
    "language": "en",
    "publisher": "BrightSummaries.com",
    "term": "Bernard Werber",
    "title": "Empire of the Ants by Bernard Werber (Book Analysis)"
  },
  {
    "author": "Bernard Werber",
    "category": "Fiction",
    "description": "Pour vous n'existait une seule Histoire : celle de l'Humanité. Mais il y a eu LA rencontre. Et nous avons changé à jamais VOTRE histoire, nous les chats.",
    "id": "t_IJDQAAQBAJ",
    "language": "fr",
    "publisher": "Albin Michel",
    "term": "Bernard Werber",
    "title": "Demain les chats"
  },
  {
    "author": "Bernard Werber",
    "category": "Fiction",
    "description": "« Cette planète est notre berceau mais nous l'avons saccagée. Nous ne pourrons plus jamais la soigner ni la retrouver comme avant. Quand la maison s'effondre, il faut partir. Recommencer tout, ailleurs et autrement. Le Dernier Espoir, c'est la Fuite. »",
    "id": "bNEOYHQedLYC",
    "language": "fr",
    "publisher": "Albin Michel",
    "term": "Bernard Werber",
    "title": "Le Papillon des étoiles"
  },
  {
    "author": "Bernard Werber",
    "category": "Fiction",
    "description": "II y a 2 millions d'années : le cerveau humain conçoit l'outil, qui démultiplie son efficacité. II y a 50 ans : il élabore les premiers programmes d'intelligence artificielle. Il y a 5 ans les machines arrivent à penser seules. Il y a une semaine, un cerveau humain aidé d'un ordinateur accède à « l'Ultime secret »",
    "id": "5byh86SGLVoC",
    "language": "fr",
    "publisher": "Albin Michel",
    "term": "Bernard Werber",
    "title": "L'Ultime secret"
  },
  {
    "author": "Bernard Werber",
    "category": "Fiction",
    "description": "Au-dessus des hommes, les Anges. Au-dessus des Anges, les Dieux. Au-dessus des Dieux : ? Après Nous, les Dieux (2004) et Le Souffle des Dieux (2005), Le Mystère des Dieux est le troisième volet de la trilogie du Cycle des Dieux. « Plus que jamais, on peut dire que l'allumeur de rêves, c'est Werber. » Olivier Delcroix, Le Figaro.",
    "id": "_BQxFJSZLEgC",
    "language": "fr",
    "publisher": "Albin Michel",
    "term": "Bernard Werber",
    "title": "Le Mystère des Dieux"
  },
  {
    "author": "Bernard Werber",
    "category": "Fiction",
    "description": "Madeleine Wallenberg, scientifique parisienne, rêve chaque nuit d'une femme qui lui dit : « Un jour, il n'y aura que des femmes sur Terre et les hommes ne seront plus qu'une légende. » Et si son rêve devenait réalité ? L'imagination débordante et le talent visionnaire de Bernard Werber au service d'un futur possible. Cette nouvelle est extraite du livre Paradis sur mesure. Temps de lecture estimé : à partir de 1 heure.",
    "id": "pMeMCgAAQBAJ",
    "language": "fr",
    "publisher": "Albin Michel",
    "term": "Bernard Werber",
    "title": "Demain les femmes"
  },
  {
    "author": "Bernard Werber",
    "category": "Fiction",
    "id": "qdIdAQAAIAAJ",
    "language": "fr",
    "term": "Bernard Werber",
    "title": "Nous, les dieux"
  },
  {
    "author": "Bernard Werber",
    "category": "Fiction",
    "description": "Elles sont un milliard de milliards.Nous les remarquons à peine, elles nous guettent pourtant depuis longtemps. Pour certaines, nous sommes des Dieux. Pour les autres, des êtres malfaisants. Avec une intelligence et une organisation prodigieuses qui n'ont rien à envier aux armées les plus redoutables, elles se préparent à une lutte sans merci. Qui seront les vrais maîtres de la terre ? De la réponse à cette question leur survie dépend... La nôtre aussi.Le jour des fourmis est-il vraiment arrivé ?Après le succès phénoménal de son précédent roman, Les Fourmis, best-seller international, traduit en douze langues, primé par de nombreux jurys, mis au programme de certaines classes de biologie, Bernard Werber, romancier et journaliste scientifique, poursuit sa grande saga des « intra-terrestres ». II nous entraîne plus loin encore dans un univers hallucinant et terrible, où grouillent des insectes aux comportements pervers, féroces, fascinants.Plus qu'un thriller, Le jour des fourmis devient une formidable et troublante odyssée moderne, mêlant la fiction et l'imaginaire à la science la plus avancée de l'infiniment petit.",
    "id": "jDTUQom3gSkC",
    "language": "fr",
    "publisher": "Albin Michel",
    "term": "Bernard Werber",
    "title": "Le Jour des fourmis"
  },
  {
    "author": "Bernard Werber",
    "category": "Fiction",
    "description": "Je me nomme Gabriel Wells. Je suis écrivain de romans à suspens. Ma nouvelle enquête est un peu particulière car elle concerne le meurtre de quelqu'un que je connais personnellement : Moi-même. J'ai été tué dans la nuit et je me demande bien par qui. Pour résoudre cette énigme j'ai eu la chance de rencontrer Lucy Filipini. En tant que médium professionnelle, elle parle tous les jours aux âmes des défunts. Et c'est ensemble, elle dans le monde matériel, moi dans le monde invisible, que nous allons tenter de percer le mystère de ma mort.",
    "id": "RxwvDwAAQBAJ",
    "language": "fr",
    "publisher": "Albin Michel",
    "term": "Bernard Werber",
    "title": "Depuis l'au-delà"
  },
  {
    "author": "Pierre Rabhi",
    "category": "Nature",
    "description": "Vers la sobriété heureuse Dans cet ouvrage, Pierre Rabhi apporte son témoignage sur ce qu’il appelle la « sobriété heureuse », prise en tant que réelle valeur de bien-être, force de libération physique et morale. Eloge du génie créateur de la société civile Dans cet opuscule, Pierre Rabhi expose les motivations profondes qui l’ont poussé, avec ses amis, collaborateurs et collaboratrices, à lancer une campagne parallèle lors de l’échéance électorale française de 2012. Il ne s’agit en aucun cas d’entrer en politique politicienne mais de permettre à tous ceux qui, avec conscience, conviction et détermination, œuvrent concrètement pour un changement bénéfique de la société, d’être enfin entendus. Face aux événements planétaires générateurs de détresse et de violence, il affirme que le temps des consciences éclairées, déterminées, agissantes et tranquilles est venu. Pierre Rabhi, semeur d'espoirs Ce long entretien est l'occasion pour Pierre Rabhi de s'adresser aux autres, mais aussi à lui-même, comme il ne l'avait jamais fait jusqu'à présent. Et d'approfondir sa réflexion tout en restant, selon son habitude, concret, humain, terrien. Et plus que jamais philosophe et poète.",
    "id": "i5hjDQAAQBAJ",
    "language": "fr",
    "publisher": "Éditions Actes Sud",
    "term": "Pierre Rabhi",
    "title": "Edition Spéciale 3 titres Pierre Rabhi"
  },
  {
    "author": "Pierre Rabhi",
    "category": "Agricultural ecology",
    "description": "\" Lutter contre la désertification, proposer à travers cette lutte une éthique, et peut-être au-delà des gestes techniques que nous sommes venus divulguer, faire naître, en dépit de tous les non-sens, un peu de tendresse pour la terre. Pierre Rabhi qui écrit ces lignes dans L'Offrande au Crépuscule, est né dans le sud algérien en 1938. Paysan agro-écologiste, vivant depuis plus de quarante ans en Ardèche, il s'est attaché depuis vingt ans à mettre son expertise au service de la sécurité alimentaire des populations. Ce livre est le récit de l'aventure extraordinaire qui l'a conduit, au début des années quatre-vingt, à la rencontre du Burkina Faso, où la création puis l'animation du centre de formation de Gorom-Gorom lui ont permis d'œuvrer à une large diffusion de l'agro-écologie auprès des paysans les plus pauvres. Hymne à la vie et à la terre-mère, dédié à toutes les femmes de la planète, L'Offrande au crépuscule a obtenu en 1989 le prix des Sciences Sociales Agricoles Michel Auge-Laribé, décerné par le ministère de l'Agriculture.",
    "id": "9wYiZamEIosC",
    "language": "fr",
    "publisher": "Editions L'Harmattan",
    "term": "Pierre Rabhi",
    "title": "L'offrande au crépuscule"
  },
  {
    "author": "Olivier Le Naire, Pierre Rabhi",
    "category": "Nature",
    "description": "Ce long entretien est l'occasion pour Pierre Rabhi de s'adresser aux autres, mais aussi à lui-même, comme il ne l'avait jamais fait jusqu'à présent. Et d'approfondir sa réflexion tout en restant, selon son habitude, concret, humain, terrien. Et plus que jamais philosophe et poète.",
    "id": "Wl_gAwAAQBAJ",
    "language": "fr",
    "publisher": "Éditions Actes Sud",
    "term": "Pierre Rabhi",
    "title": "Pierre Rabhi semeur d'espoirs"
  },
  {
    "author": "Pierre Rabhi",
    "id": "PaM9QwAACAAJ",
    "language": "en",
    "term": "Pierre Rabhi",
    "title": "Manifeste pour des oasis en tous lieux"
  },
  {
    "author": "Pierre Rabhi",
    "category": "Fiction",
    "description": "Pierre Rabhi est un homme en marche. Vers plus de solidarité, plus de fraternité. Vers ce point d'équilibre où l'humanité et le cosmos, les peuples du Nord et ceux du Sud, les sociétés qui meurent de leur gaspillage et celles qui s'éteignent dans la misère, devraient retrouver l'harmonie. Déchiré, dans son enfance algérienne, entre une origine musulmane et une éducation à l'occidentale, il fut le témoin de ces populations écartelées entre leurs traditions séculaires et la modernité. Travailleur immigré confronté au racisme et à l'absurdité de l'univers urbain, il parvint en compagnie de sa femme à exploiter une petite ferme cévenole, réalisant ainsi son rêve de retour à la terre. Fort de cette réussite, il chercha dès lors à transmettre son savoir-faire agronomique et lança en France, en Afrique noire et au Maghreb, de nombreuses initiatives visant à fertiliser les terres arides, à promouvoir une réconciliation entre les hommes et la Terre-Mère, et à inaugurer une autre éthique dans les échanges internationaux. Ce pionnier d'une révolution écologique tranquille s'adresse aussi bien aux hommes en lutte contre la désertification de leurs terres qu'à ceux qui découvrent la désertification de leur âme.",
    "id": "yEVaBFuroukC",
    "language": "fr",
    "publisher": "Albin Michel",
    "term": "Pierre Rabhi",
    "title": "Du Sahara aux Cévennes"
  },
  {
    "author": "Pierre Rabhi",
    "description": "Pour une écologie intelligente et humaniste. Un auteur de référence, écologiste et penseur engagé, qui fait son entrée dans la collection \" Spiritualités \". L'immense succès des ouvrages de Pierre Rabhi (et récemment de La Convergence des consciences, Le Passeur, 70 000 ex vendus) et un auteur très présent en librairie. \" Il est en train de devenir le penseur de référence pour les adeptes de l'écologie, les partisans de la décroissance et les sympathisants de l'altermondialisme. \", Psychologie.com.",
    "id": "GevUswEACAAJ",
    "language": "fr",
    "term": "Pierre Rabhi",
    "title": "La symphonie de la vie"
  },
  {
    "author": "Pierre Rabhi",
    "category": "Business & Economics",
    "description": "À présent, l’impasse majeure se confirme entre un monde industriel frappé de récession, et des campagnes vidées de leurs intendants et de leur substance. Après l’orgie productiviste, après le rêve du surhomme, le déclin est là : il se traduit par un bilan négatif si l’on considère l’état de l’ensemble de l’humanité et de la biosphère. Il se traduit surtout par la perte du sens. La tête chercheuse ne sait plus le chemin, et le parcours réalisé est ensemencé d’insatisfaction, d’exclusion, de famines, de guerres, de frustrations. L’avenir est à inventer, à repenser, mais sur quels principes ? Nous sommes de ceux qui ont été depuis longtemps, et qui sont encore plus que jamais convaincus que la terre sera l’un des grands recours pour demain, au Nord comme au Sud. Cet être silencieux dont nous sommes l’une des expressions vivantes recèle les valeurs permanentes faites de ce qui nous manque le plus : la cadence juste, la saveur des cycles et la patience, l’espoir qui se renouvelle toujours car les puissances de vie sont infinies. Il nous faudra sans doute, pour changer jusqu’au tréfonds de nos consciences, laisser nos arrogances et apprendre avec simplicité, sans idolâtrie, sensiblerie ni outrance, les sentiments et les gestes qui nous relient aux évidences. Sans renoncer aux acquis positifs de la modernité et de la science, il nous faudra retrouver peut-être un peu du sentiment de nos ancêtres, pour qui la création, les créatures et la terre étaient avant tout sacrées. Pierre Rabhi",
    "id": "cHZYDwAAQBAJ",
    "language": "fr",
    "publisher": "FeniXX",
    "term": "Pierre Rabhi",
    "title": "Le Recours à la terre"
  },
  {
    "author": "Pierre Rabhi",
    "category": "Business & Economics",
    "description": "The current crisis clearly demonstrates that our model of society has reached its limits. The time has come to recognize that our affluent societies have more than enough to meet their essential material needs—provided it is done fairly. The time has also come to question whether we are going to live with less, rather than more, money. We have the necessary means to do so, provided we accept this as an irrevocable principle of our lives. Rather than losing heart, this crisis can instead awaken within us unprecedented creative forces so that together, we can construct a satisfying world for heart, mind, and spirit. In the face of a joyless society of overabundance, the “power of restraint” represents a realistic alternative. As a liberating moral and physical force, it is a political act of legitimate resistance to this juggernaut that is destroying the planet and isolating the individual. The time has come to break free of these bulimic habits and the constant quest for more and more. Pierre Rabhi adopted this way of life many years ago; he offers us a form of simplicity and gratitude that gives meaning to our existence, along with a unique sense of lightness: the power of restraint.",
    "id": "ZKE2DwAAQBAJ",
    "language": "en",
    "publisher": "Éditions Actes Sud",
    "term": "Pierre Rabhi",
    "title": "The Power of Restraint"
  },
  {
    "author": "Pierre Rabhi",
    "description": "Ce coffret regroupe trois livres essentiels de Pierre Rabhi : Du Sahara aux Cévennes : Le parcours et l’expérience d’un homme qui a fondé toute sa philosophie de vie, ainsi que son travail de mise en valeur des régions arides et des cultures traditionnelles, sur l’ardente passion qu’il voue à la Terre. Parole de terre : Cette initiation africaine veut alerter nos consciences sur les exactions commises à l’encontre de la planète, mais aussi à notre détriment, car Pierre Rabhi nous le rappelle : notre destin est lié à la Terre d’une manière irrévocable. Le Gardien du feu : Pierre Rabhi mène un incessant combat pour la réhabilitation des cultures traditionnelles, au sens concret et agricole du terme. Dans ce livre, les événements alternent avec des contes qui nous situent dans le temps de la mémoire et de la sagesse d’un peuple.",
    "id": "C0xGYgEACAAJ",
    "language": "fr",
    "term": "Pierre Rabhi",
    "title": "Pierre Rabhi, un humaniste au service de la Terre-Mère, coffret en 3 volumes"
  },
  {
    "author": "Pierre Rabhi",
    "category": "Self-Help",
    "description": "Depuis maintenant des décennies, Pierre Rabhi mène un incessant combat pour la réhabilitation des cultures traditionnelles ' cultures au sens agricole du terme, comme au sens spirituel. Homme du concret, il s'est révélé également un admirable conteur dans le récit de son parcours hors du commun, Du Sahara aux Cévennes, et dans ses Paroles de terre, véritable roman de l'âme africaine. Avec Le Gardien du feu, on navigue encore dans des eaux frontalières où s'interpénètrent le mythe et l'histoire, les rites traditionnels et les problématiques urgentes d'aujourd'hui. La vie du jeune Ahmed, de son père Moussa le forgeron, de leur famille et de leur village nous est décrite dans une fresque où chaque bruit, chaque odeur apporte sa note singulière. Les contes de sagesse véhiculés par la mémoire populaire s'entrechoquent avec le danger présent de la désertification, avec une culture en perdition, trésor sans prix qu'il appartient aux hommes de sauver. Il faut écouter ces histoires qui nous parlent de notre histoire à tous. Il faut écouter l'appel de Pierre Rabhi, cet homme qui infatigablement, sans jamais élever le ton de la voix, tente de hausser le niveau de notre humanité.",
    "id": "NmgrAgAAQBAJ",
    "language": "fr",
    "publisher": "Albin Michel",
    "term": "Pierre Rabhi",
    "title": "Le Gardien du feu"
  },
  {
    "author": "Pierre Rabhi",
    "category": "Nature",
    "description": "Pierre Rabhi a fondé toute sa philosophie de vie ainsi que son travail de mise en valeur des régions arides et des cultures traditionnelles sur l'ardente passion qu'il voue à la Terre. Après Du Sahara aux Cévennes ou la reconquête du songe, il plaide ici en faveur de l'indispensable réconciliation avec notre Terre-Mère, aussi réelle que symbolique, aussi essentielle dans la pratique que sur le plan spirituel. Sous forme de récit préfacé par Yehudi Menuhin, Parole de Terre dresse le bilan d'une civilisation qui, voulant dominer la Terre, la mutile, la torture et la désacralise. A travers Tyemoro, le personnage principal, s'expriment la souffrance et l'abandon dont sont victimes les peuples traditionnels du Sud, soumis à la logique désastreuse du productivisme agricole. Cette initiation africaine, d'une portée universelle, veut nous ouvrir les yeux et alerter nos consciences sur les exactions commises à l'encontre de la planète, mais aussi à notre détriment, car Pierre Rabhi nous le rappelle : notre destin est lié à celui de la Terre d'une manière irrévocable.",
    "id": "12wrAgAAQBAJ",
    "language": "fr",
    "publisher": "Albin Michel",
    "term": "Pierre Rabhi",
    "title": "Parole de terre"
  },
  {
    "author": "Pierre Rabhi, Juliette Duquesne",
    "category": "Nature",
    "description": "Pour justifier l'agriculture intensive, certains nous expliquent que, depuis cinquante ans, la faim dans le monde a régressé. Qu'en est-il vraiment ? Quelles sont les causes de ce fléau ? Pour les détracteurs de l'agroécologie, il est impossible de nourrir la population grâce à ses techniques. Or l'agroécologie, mise à l'épreuve des faits, est en mesure de nourrir la planète, expliquent les auteurs dans Pour en finir avec la faim dans le monde. Depuis plus de cinquante ans, les semences ne sont plus un bien public. C'est un sujet sensible et extrêmement important, car il touche aux fondements de la vie. Hélas, la réglementation est complexe, et cette problématique a toujours été maintenue hors de portée et de compréhension du grand public. Mais alors, que s'est-il passé pour que 75 % de la diversité génétique cultivée et transmissible disparaissent en un siècle ? Et quels risques les OGM représentent-ils ? Autant de questions qu'aborde Les semences, un patrimoine vital en voie de disparition.",
    "id": "d4NZDgAAQBAJ",
    "language": "fr",
    "publisher": "Presses du Châtelet",
    "term": "Pierre Rabhi",
    "title": "Les semences : un patrimoine vital en voie de disparition"
  },
  {
    "author": "Luciano Melis, Pierre Rabhi",
    "category": "Literary Collections",
    "description": "« L'arbre n'est pas seulement racine, tronc, branche et feuillage, il est un pont vertical unissant les forces telluriques à celles du cosmos, écrit Pierre Rabhi. Il est prière incessante adressée à l'univers pour attirer tous les bienfaits de la vie sur la terre... » Pierre Rabhi présente cette anthologie de textes littéraires sur l'arbre, célébré par les poètes et écrivains de toutes les époques. Cette promenade dans la forêt des mots nous emmène au fil des mots, de Montaigne au poète contemporain André Verdet qui assure : « L'arbre ne parle qu'aux êtres qui ont le même pas que lui ! » Un livre élégant pour prendre le temps de la contemplation, de la méditation et de la réflexion - à l'ombre de l'arbre protecteur, évidemment.",
    "id": "Q789DwAAQBAJ",
    "language": "fr",
    "publisher": "Presses du Châtelet",
    "term": "Pierre Rabhi",
    "title": "L'arbre philosophe"
  },
  {
    "author": "Pierre Rabhi, Jacques Caplat, Sophie Rabhi",
    "category": "Nature",
    "description": "Signe des temps, on parle désormais d’agroécologie partout, depuis le ministère de l’Agriculture jusque dans les médias. Quitte à vider ce mot de son sens. Pierre Rabhi, l’un des pionniers de l’agroécologie en France et en Afrique, met les choses au point dans cet ouvrage. Il y parle d’agriculture bien sûr, d’ogm, de technologie, mais aussi de l’éthique de vie que l’agroécologie lui inspire...",
    "id": "fTGgCgAAQBAJ",
    "language": "fr",
    "publisher": "Éditions Actes Sud",
    "term": "Pierre Rabhi",
    "title": "L'Agroécologie, une éthique de vie"
  },
  {
    "author": "Pierre Rabhi",
    "category": "Social Science",
    "description": "Dans cet ouvrage, Pierre Rabhi apporte son témoignage sur ce qu’il appelle la « sobriété heureuse », prise en tant que réelle valeur de bien-être, force de libération physique et morale.",
    "id": "smQjAwAAQBAJ",
    "language": "fr",
    "publisher": "Éditions Actes Sud",
    "term": "Pierre Rabhi",
    "title": "Vers la sobriété heureuse"
  },
  {
    "author": "Nicolas Hulot, Pierre Rabhi, Weronika Zarachowicz",
    "category": "Ecologists",
    "description": "A priori, on ne peut pas être plus différent : entre le Saharien frugal à la voix douce et le baroudeur médiatique habitué aux coups de gueule, il semble qu'il n'y ait aucun point commun. Or Pierre Rabhi et Nicolas Hulot partagent une passion dont on s'étonne qu'elle ne soit pas plus répandue : celle de la planète sur laquelle nous vivons. Venus à l'écologie par des chemins aussi différents que leurs itinéraires personnels, ils se sont rencontrés en 2001 et le courant est passé immédiatement entre deux consciences habitées par la même aspiration. Au fil de ce dialogue passionné et passionnant, Pierre et Nicolas, parcourant des domaines aussi variés que la science, la politique, l'éducation ou la religion, se questionnent sur notre relation à la nature et sur le sens que nous donnons à la vie. Devant la spirale infernale du productivisme et de la surconsommation et devant l'épuisement accéléré des ressources de la planète, ils nous invitent à réfléchir aux menaces qui pèsent sur l'avenir de l'humanité et à prendre conscience de nos responsabilités. Sur certaines questions, l'accord est parfait. Sur d'autres, des désaccords se font jour : alors que Pierre Rabhi, l'écologiste utopique, ne voit pas d'autre alternative que la décroissance soutenable, Nicolas Hulot, le \" pragmatique \", plaide plutôt en faveur d'un développement durable. Au-delà des spécificités de chacun, leur échange nous rappelle aux évidences et à l'essentiel, aux valeurs de la beauté et de la sobriété, de la compassion et de la solidarité pour réenchanter notre monde et honorer la vie.",
    "id": "L8-DHAAACAAJ",
    "language": "fr",
    "term": "Pierre Rabhi",
    "title": "Graines de possibles"
  },
  {
    "author": "Pierre Rabhi",
    "category": "Business & Economics",
    "description": "La Bourse ou la vie ! Peu d’injonctions caractérisent mieux notre époque. Les choix et les orientations dites économiques de nos sociétés sont une catastrophe pour la plus grande partie de l’humanité. La financiarisation de l’économie a des conséquences négatives concrètes sur les États, les citoyens, les entreprises, les salariés, le prix des denrées alimentaires de base ou, plus grave encore, la nature... Déficits, subprimes, fonds de pension, produits dérivés, trading haute fréquence... Autant de termes, souvent opaques, qui ont envahi notre quotidien et conquis la planète, non sans ravages. Les récentes crises financières n’ont pourtant guère connu de précédents. L’ampleur de tels ouragans mérite explications et information, pour tenter de comprendre l’univers de la finance sans le caricaturer. Ce livre présente des solutions pour éviter une nouvelle crise de grande ampleur. Et pour promouvoir une finance éthique et solidaire, en mesure d’enrayer une logique contraire à l’équité.",
    "id": "t4o9DwAAQBAJ",
    "language": "fr",
    "publisher": "Presses du Châtelet",
    "term": "Pierre Rabhi",
    "title": "Les excès de la finance"
  },
  {
    "author": "Albert Jacquard, Pierre Rabhi, Théodore Monod, Jean-Marie Pelt, Annick de Souzenelle, André Comte-Sponville",
    "category": "Philosophy",
    "description": "Chacun peut constater que l'état du monde se dégrade, que la civilisation du progrès et du libéralisme, si elle continue à fonctionner sans frein, est auto-destructrice. Si les puissants du monde se refusent à agir, une nouvelle conscience écologique s'affirme néanmoins chez les individus des quatre continents, préparant les fondements d'une autre mondialisation, fraternelle et spirituelle. Les acteurs et penseurs du monde contemporain réunis ici partagent ce souci et cet espoir et viennent, en éclaireurs, nous apporter leurs vues sur les derniers développements de l'écologie, ses rapports avec la vie citoyenne, les religions ou la philosophie. Un état des lieux passionnant qui, s'il fait la part belle à la poésie et à la contemplation, n'en est pas moins un appel à l'action. Avec, entre autres, Jacques Brosse, André Comte-Sponville, Eugen Drewermann, Albert Jacquard, Jacques Lacarrière, Théodore Monod, Jean-Marie Pelt, Pierre Rabhi, Annick de Souzenelle...",
    "id": "6QPbS68THQQC",
    "language": "fr",
    "publisher": "Albin Michel",
    "term": "Pierre Rabhi",
    "title": "Ecologie et spiritualité"
  },
  {
    "author": "Pierre Rabi",
    "category": "Philosophy",
    "description": "'Het is in de eerste plaats de natuur die ons moet inspireren, want zij is de enige echte garantie voor duurzaamheid.' - Pierre Rabhi Pierre Rabhi is begin twintig als hij eind jaren vijftig, midden in de zogenoemde Dertig Glorieuze Jaren, besluit zich aan de moderne beschaving te onttrekken en terug te keren naar het Franse platteland. In Frankrijk en Europa is hij getuige van een triest schouwspel: zowel op de velden als in de fabrieken moet de mens een vorm van persoonlijke vervreemding accepteren met als enig doel de economische machine te laten draaien. Een economie die zich door haar zoektocht naar ongelimiteerde groei schuldig maakt aan roofbouw. Gemeenschappelijke hulpbronnen van de mensheid worden niet langer beheerd en verdeeld op basis van een langetermijnvisie. De diepe band met de natuur is verbroken; natuur wordt gezien als niets meer dan een onuitputtelijke bron van winbare grondstoffen. In Het geluk van het genoeg vertelt Rabhi over zijn ervaringen, die duidelijk maken dat het alleen mogelijk is te breken met de kannibalistische mondialisering als we onze behoeften en verlangens matigen en kiezen voor een bevrijdende en vrijwillig aanvaarde soberheid. Alleen zo kunnen we de mens en de natuur terugplaatsen in het centrum van onze aandacht en de wereld smaak en lichtheid geven. Pierre Rabhi is boer, schrijver en filosoof, en een van de pioniers van de ecologische landbouw in Frankrijk. Hij verdedigt een andere maatschappij, een die respectvoller omgaat met de mens en de aarde, en hij ondersteunt de ontwikkeling van agro-ecologie over de hele wereld. Rabhi heeft een groot oeuvre, waaronder Manifeste pour la terre et l'humanisme. Het geluk van het genoeg heeft in Frankrijk meer dan 300.000 verkochte exemplaren.",
    "id": "MlNHDwAAQBAJ",
    "language": "nl",
    "publisher": "Marmer",
    "term": "Pierre Rabhi",
    "title": "Het geluk van het genoeg"
  },
  {
    "author": "Pierre Rabhi, Juliette Duquesne",
    "category": "Nature",
    "description": "Pour justifier l'agriculture intensive, certains nous expliquent que, depuis cinquante ans, la faim dans le monde a régressé. Qu'en est-il vraiment ? Quelles sont les causes de ce fléau ? Pour les détracteurs de l'agroécologie, il est impossible de nourrir la population grâce à ses techniques. Or l'agroécologie, mise à l'épreuve des faits, est en mesure de nourrir la planète, expliquent les auteurs dans Pour en finir avec la faim dans le monde. Depuis plus de cinquante ans, les semences ne sont plus un bien public. C'est un sujet sensible et extrêmement important, car il touche aux fondements de la vie. Hélas, la réglementation est complexe, et cette problématique a toujours été maintenue hors de portée et de compréhension du grand public. Mais alors, que s'est-il passé pour que 75 % de la diversité génétique cultivée et transmissible disparaissent en un siècle ? Et quels risques les OGM représentent-ils ? Autant de questions qu'aborde Les semences, un patrimoine vital en voie de disparition.",
    "id": "bmCMDgAAQBAJ",
    "language": "fr",
    "publisher": "Presses du Châtelet",
    "term": "Pierre Rabhi",
    "title": "Pour en finir avec la faim dans le monde"
  },
  {
    "author": "Pierre Rabhi",
    "category": "Science",
    "description": "Dans cet opuscule, Pierre Rabhi expose les motivations profondes qui l’ont poussé, avec ses amis, collaborateurs et collaboratrices, à lancer une campagne parallèle lors de l’échéance électorale française de 2012. Il ne s’agit en aucun cas d’entrer en politique politicienne mais de permettre à tous ceux qui, avec conscience, conviction et détermination, œuvrent concrètement pour un changement bénéfique de la société, d’être enfin entendus. Face aux événements planétaires générateurs de détresse et de violence, il affirme que le temps des consciences éclairées, déterminées, agissantes et tranquilles est venu.",
    "id": "s_ipPMZE9lAC",
    "language": "fr",
    "publisher": "Éditions Actes Sud",
    "term": "Pierre Rabhi",
    "title": "Eloge du génie créateur de la société civile - Tous Candidats"
  },
  {
    "author": "Pierre Rabhi",
    "category": "Political Science",
    "description": "Au fil des mots de sa vie, Pierre Rabhi nous éclaire sur les racines de son insurrection pour la construction d'une société écologique et humaine et sur sa conviction profonde que nous pouvons changer le monde. Un document exceptionnel. Figure du sage appelant à l' \" insurrection des consciences \" et au refus de toute aliénation consumériste, Pierre Rabhi est aujourd'hui le chantre de la sobriété librement consentie. Servis par un indéniable sens de la formule, ses appels à la modération et au respect de la terre emportent une adhésion considérable. Devenu un porte-parole de l'agroécologie pensée comme une éthique de vie mais aussi un philosophe du changement de paradigme, il ne s'était cependant jusqu'alors jamais exprimé sur nombre de sujets touchant autant à sa biographie, à son expérience qu'à son regard sur le monde et l'histoire. Nostalgie, peur et amour, violence, hospitalité et migration, libéralisme, démocratie et politique, Sahara, Europe et Israël, Krishnamurti, Albert Einstein et René Dumont, Shoah, guerre de 1914 et \" Marseillaise \", OGM et privatisation du vivant figurent parmi les thèmes abordés \" en toute liberté \". Cet abécédaire intime vient à point pour éclairer les racines de l'\" insurrection \" de Pierre Rabhi et de son intime conviction : en nous changeant nous-mêmes, nous pouvons changer le monde.",
    "id": "eRo7DQAAQBAJ",
    "language": "fr",
    "publisher": "Le Passeur",
    "term": "Pierre Rabhi",
    "title": "La convergence des consciences"
  },
  {
    "author": "Jean-Marie Pelt, Pierre Rabhi",
    "category": "Social Science",
    "description": "Toutes les cultures du monde se sont interrogées sur la question du « sens ». Dans notre société en perte de repères, la science, nous dit Jean-Marie Pelt, permet, en explorant le réel du big bang jusqu’à l’homme, d’apporter des éléments de réponse à cette question. En effet, d’un bout à l’autre de la longue histoire de l’univers, l’évolution conduit des éléments simples à s’associer pour former des entités plus complexes, faisant émerger de nouvelles propriétés C’est ce qu’il appelle le « principe d’associativit頻. Par de multiples exemples puisés dans la nature, Jean-Marie Pelt met en lumière le fait que la vie doit davantage à l’alliance qu’à la rivalité. Pierre Rabhi défend avec lui ce principe en « intendant et serviteur de la Terre nourricière », comme il se définit lui-même. Pour lui, il appartient désormais aux hommes de poursuivre ce processus en privilégiant la coopération au détriment de la compétition, source de tensions et de conflits. Jean-Marie Pelt et Pierre Rabhi, amis de longue date, mettent ici en commun, par-delà les désespérances de notre temps, une vision qui se veut optimiste mais qui exige, à leurs yeux, pour aboutir à un monde plus juste et fraternel, une authentique et massive « insurrection des consciences ».",
    "id": "St5PAwAAQBAJ",
    "language": "fr",
    "publisher": "Fayard",
    "term": "Pierre Rabhi",
    "title": "Le monde a-t-il un sens ?"
  },
  {
    "author": "Pierre Rabhi",
    "description": "Dans ses conversations avec le Père Holtoff, ermite catholique, les moines bouddhistes Lama Lhundroup et Lama Mingyur et Aigle Bleu, chamane indien du Canada, Pierre Rabhi s'interroge avec eux sur les rapports complexes de l'être humain et de la nature. Aucunes de nos interrogations actuelles ne se trouvent négligées ici, notamment sur la réelle nécessité d'une nouvelle éducation. Mais ils discutent aussi de la place de la non-violence et du conflit dans nos vies, ainsi que de l'importance d'une spiritualité permettant de contrebalancer l'impact de l'homme sur la nature. Il s'agit de retrouver une nouvelle intimité avec notre environnement par des solutions concrètes et applicables. Un entretien en fin de volume entre Marc de Smedt et Pierre Rabhi, conclut cet ouvrage.",
    "id": "5BS2twEACAAJ",
    "language": "fr",
    "term": "Pierre Rabhi",
    "title": "Ce que nous dit la nature"
  },
  {
    "author": "Pierre Rabhi",
    "id": "qZP5swEACAAJ",
    "language": "en",
    "term": "Pierre Rabhi",
    "title": "Humus, humanité, humilité"
  }
]