[
  {
    "type": "album",
    "author": "Red Hot Chili Peppers",
    "title": "Californication",
    "term": "Californication",
    "meta": {
      "artistId": 889780,
      "artistName": "Red Hot Chili Peppers",
      "collectionId": 945575406,
      "collectionName": "Californication",
      "kind": "album",
      "term": "Californication",
      "type": "collection"
    }
  },
  {
    "type": "album",
    "author": "Red Hot Chili Peppers",
    "title": "Californication (Deluxe Version)",
    "term": "Californication",
    "meta": {
      "artistId": 889780,
      "artistName": "Red Hot Chili Peppers",
      "collectionId": 948446127,
      "collectionName": "Californication (Deluxe Version)",
      "kind": "album",
      "term": "Californication",
      "type": "collection"
    }
  },
  {
    "type": "album",
    "author": "Leo",
    "title": "Californication (Metal Version) [feat. Jared Dines, Rabea Massaad, Robert Baker, Rob Scallon, Garrett Peters & Eric Calderone] - Single",
    "term": "Californication",
    "meta": {
      "artistId": 923604480,
      "artistName": "Leo",
      "collectionId": 1202034691,
      "collectionName": "Californication (Metal Version) [feat. Jared Dines, Rabea Massaad, Robert Baker, Rob Scallon, Garrett Peters & Eric Calderone] - Single",
      "kind": "album",
      "term": "Californication",
      "type": "collection"
    }
  },
  {
    "type": "album",
    "author": "West.K",
    "title": "Californication (Remixes) [feat. Lofthill Music] - Single",
    "term": "Californication",
    "meta": {
      "artistId": 602049692,
      "artistName": "West.K",
      "collectionId": 1236726229,
      "collectionName": "Californication (Remixes) [feat. Lofthill Music] - Single",
      "kind": "album",
      "term": "Californication",
      "type": "collection"
    }
  },
  {
    "type": "album",
    "author": "Californication Band",
    "title": "Californication (Themes from Showtime TV Series) - Single",
    "term": "Californication",
    "meta": {
      "artistId": 486014317,
      "artistName": "Californication Band",
      "collectionId": 486014316,
      "collectionName": "Californication (Themes from Showtime TV Series) - Single",
      "kind": "album",
      "term": "Californication",
      "type": "collection"
    }
  },
  {
    "type": "album",
    "author": "DEA 40831",
    "title": "Californication (feat. Alcatraz, Amir, BEAST BOY, Chingaso, Don Cahngolini 4000, Eddi Projex, Five Hunnet, Laced, Mac Mini, Tune & Umpa Nok)",
    "term": "Californication",
    "meta": {
      "artistId": 587948243,
      "artistName": "DEA 40831",
      "collectionId": 587948041,
      "collectionName": "Californication (feat. Alcatraz, Amir, BEAST BOY, Chingaso, Don Cahngolini 4000, Eddi Projex, Five Hunnet, Laced, Mac Mini, Tune & Umpa Nok)",
      "kind": "album",
      "term": "Californication",
      "type": "collection"
    }
  },
  {
    "type": "album",
    "author": "FUTAGO",
    "title": "Californication (feat. Amy Kirkpatrick) - Single",
    "term": "Californication",
    "meta": {
      "artistId": 885917177,
      "artistName": "FUTAGO",
      "collectionId": 1361206602,
      "collectionName": "Californication (feat. Amy Kirkpatrick) - Single",
      "kind": "album",
      "term": "Californication",
      "type": "collection"
    }
  },
  {
    "type": "album",
    "author": "Syn Cole",
    "title": "Californication (feat. Caroline Pennell) - Single",
    "term": "Californication",
    "meta": {
      "artistId": 594222889,
      "artistName": "Syn Cole",
      "collectionId": 1171057381,
      "collectionName": "Californication (feat. Caroline Pennell) - Single",
      "kind": "album",
      "term": "Californication",
      "type": "collection"
    }
  },
  {
    "type": "album",
    "author": "Osmar Escobar",
    "title": "Californication (feat. King Lil G) - Single",
    "term": "Californication",
    "meta": {
      "artistId": 879083194,
      "artistName": "Osmar Escobar",
      "collectionId": 1240635275,
      "collectionName": "Californication (feat. King Lil G) - Single",
      "kind": "album",
      "term": "Californication",
      "type": "collection"
    }
  },
  {
    "type": "album",
    "author": "West.K",
    "title": "Californication (feat. Lofthill Music) - Single",
    "term": "Californication",
    "meta": {
      "artistId": 602049692,
      "artistName": "West.K",
      "collectionId": 1202843061,
      "collectionName": "Californication (feat. Lofthill Music) - Single",
      "kind": "album",
      "term": "Californication",
      "type": "collection"
    }
  },
  {
    "type": "album",
    "author": "Outrageous Okanas",
    "title": "Californication - Single",
    "term": "Californication",
    "meta": {
      "artistId": 329160226,
      "artistName": "Outrageous Okanas",
      "collectionId": 388891635,
      "collectionName": "Californication - Single",
      "kind": "album",
      "term": "Californication",
      "type": "collection"
    }
  },
  {
    "type": "album",
    "author": "Musmah",
    "title": "Californication - Single",
    "term": "Californication",
    "meta": {
      "artistId": 1126586796,
      "artistName": "Musmah",
      "collectionId": 1232759824,
      "collectionName": "Californication - Single",
      "kind": "album",
      "term": "Californication",
      "type": "collection"
    }
  },
  {
    "type": "album",
    "author": "Chris Cyphaz",
    "title": "Californication - Single",
    "term": "Californication",
    "meta": {
      "artistId": 955452796,
      "artistName": "Chris Cyphaz",
      "collectionId": 1378175401,
      "collectionName": "Californication - Single",
      "kind": "album",
      "term": "Californication",
      "type": "collection"
    }
  },
  {
    "type": "album",
    "author": "Tobilla",
    "title": "Californication - Single",
    "term": "Californication",
    "meta": {
      "artistId": 1068557235,
      "artistName": "Tobilla",
      "collectionId": 1238754915,
      "collectionName": "Californication - Single",
      "kind": "album",
      "term": "Californication",
      "type": "collection"
    }
  },
  {
    "type": "album",
    "author": "Aeon Quantum Physicists",
    "title": "Californication - Single",
    "term": "Californication",
    "meta": {
      "artistId": 430904859,
      "artistName": "Aeon Quantum Physicists",
      "collectionId": 431713376,
      "collectionName": "Californication - Single",
      "kind": "album",
      "term": "Californication",
      "type": "collection"
    }
  },
  {
    "type": "album",
    "author": "Maqs",
    "title": "Californication S03e12 - Single",
    "term": "Californication",
    "meta": {
      "artistId": 333516395,
      "artistName": "Maqs",
      "collectionId": 1382171275,
      "collectionName": "Californication S03e12 - Single",
      "kind": "album",
      "term": "Californication",
      "type": "collection"
    }
  },
  {
    "type": "album",
    "author": "Various Artists",
    "title": "Californication, Season 6 (Music From the Showtime Series)",
    "term": "Californication",
    "meta": {
      "artistId": 151566958,
      "artistName": "Various Artists",
      "collectionId": 585691703,
      "collectionName": "Californication, Season 6 (Music From the Showtime Series)",
      "kind": "album",
      "term": "Californication",
      "type": "collection"
    }
  },
  {
    "type": "album",
    "author": "Various Artists",
    "title": "Music from the Showtime Series Californication: Season 2",
    "term": "Californication",
    "meta": {
      "artistId": 387969348,
      "artistName": "Various Artists",
      "collectionId": 296254778,
      "collectionName": "Music from the Showtime Series Californication: Season 2",
      "kind": "album",
      "term": "Californication",
      "type": "collection"
    }
  },
  {
    "type": "album",
    "author": "Various Artists",
    "title": "Season 3 (Music from the Showtime Series Californication)",
    "term": "Californication",
    "meta": {
      "artistId": 4035426,
      "artistName": "Various Artists",
      "collectionId": 335836084,
      "collectionName": "Season 3 (Music from the Showtime Series Californication)",
      "kind": "album",
      "term": "Californication",
      "type": "collection"
    }
  },
  {
    "type": "album",
    "author": "Various Artists",
    "title": "Season 4 (Music from the Showtime Series Californication)",
    "term": "Californication",
    "meta": {
      "artistId": 4035426,
      "artistName": "Various Artists",
      "collectionId": 410632034,
      "collectionName": "Season 4 (Music from the Showtime Series Californication)",
      "kind": "album",
      "term": "Californication",
      "type": "collection"
    }
  },
  {
    "type": "album",
    "author": "Various Artists",
    "title": "Temptation: Music from the Showtime Series Californication",
    "term": "Californication",
    "meta": {
      "artistId": 36270,
      "artistName": "Various Artists",
      "collectionId": 281174397,
      "collectionName": "Temptation: Music from the Showtime Series Californication",
      "kind": "album",
      "term": "Californication",
      "type": "collection"
    }
  },
  {
    "type": "album",
    "author": "Wunderland",
    "title": "You're Losing It (Featured Music In Californication) - Single",
    "term": "Californication",
    "meta": {
      "artistId": 288266526,
      "artistName": "Wunderland",
      "collectionId": 593290406,
      "collectionName": "You're Losing It (Featured Music In Californication) - Single",
      "kind": "album",
      "term": "Californication",
      "type": "collection"
    }
  },
  {
    "type": "album",
    "author": "Danielle Duval",
    "title": "You're the One That I Want (From \"Californication Soundtrack\") - Single",
    "term": "Californication",
    "meta": {
      "artistId": 335836260,
      "artistName": "Danielle Duval",
      "collectionId": 497387509,
      "collectionName": "You're the One That I Want (From \"Californication Soundtrack\") - Single",
      "kind": "album",
      "term": "Californication",
      "type": "collection"
    }
  },
  {
    "type": "album",
    "author": "Rammstein",
    "title": "Haifisch - EP",
    "term": "Rammstein",
    "meta": {
      "artistId": 408932,
      "artistName": "Rammstein",
      "collectionId": 371762627,
      "collectionName": "Haifisch - EP",
      "kind": "album",
      "term": "Rammstein",
      "type": "collection"
    }
  },
  {
    "type": "album",
    "author": "Rammstein",
    "title": "Herzeleid",
    "term": "Rammstein",
    "meta": {
      "artistId": 408932,
      "artistName": "Rammstein",
      "collectionId": 368317098,
      "collectionName": "Herzeleid",
      "kind": "album",
      "term": "Rammstein",
      "type": "collection"
    }
  },
  {
    "type": "album",
    "author": "Rammstein",
    "title": "Keine Lust - EP",
    "term": "Rammstein",
    "meta": {
      "artistId": 408932,
      "artistName": "Rammstein",
      "collectionId": 59698356,
      "collectionName": "Keine Lust - EP",
      "kind": "album",
      "term": "Rammstein",
      "type": "collection"
    }
  },
  {
    "type": "album",
    "author": "Rammstein",
    "title": "Liebe is für alle da (Bonus Track Version)",
    "term": "Rammstein",
    "meta": {
      "artistId": 408932,
      "artistName": "Rammstein",
      "collectionId": 334462044,
      "collectionName": "Liebe is für alle da (Bonus Track Version)",
      "kind": "album",
      "term": "Rammstein",
      "type": "collection"
    }
  },
  {
    "type": "album",
    "author": "Rammstein",
    "title": "Liebe ist für alle da",
    "term": "Rammstein",
    "meta": {
      "artistId": 408932,
      "artistName": "Rammstein",
      "collectionId": 334579054,
      "collectionName": "Liebe ist für alle da",
      "kind": "album",
      "term": "Rammstein",
      "type": "collection"
    }
  },
  {
    "type": "album",
    "author": "Rammstein",
    "title": "Live aus Berlin (August 1998 Parkbühne Wuhlheide, Berlin)",
    "term": "Rammstein",
    "meta": {
      "artistId": 408932,
      "artistName": "Rammstein",
      "collectionId": 368317934,
      "collectionName": "Live aus Berlin (August 1998 Parkbühne Wuhlheide, Berlin)",
      "kind": "album",
      "term": "Rammstein",
      "type": "collection"
    }
  },
  {
    "type": "album",
    "author": "Rammstein",
    "title": "Made in Germany (1995-2011) [Special Version]",
    "term": "Rammstein",
    "meta": {
      "artistId": 408932,
      "artistName": "Rammstein",
      "collectionId": 479128100,
      "collectionName": "Made in Germany (1995-2011) [Special Version]",
      "kind": "album",
      "term": "Rammstein",
      "type": "collection"
    }
  },
  {
    "type": "album",
    "author": "Rammstein",
    "title": "Made in Germany 1995-2011",
    "term": "Rammstein",
    "meta": {
      "artistId": 408932,
      "artistName": "Rammstein",
      "collectionId": 479128136,
      "collectionName": "Made in Germany 1995-2011",
      "kind": "album",
      "term": "Rammstein",
      "type": "collection"
    }
  },
  {
    "type": "album",
    "author": "Rammstein",
    "title": "Mein Land - EP",
    "term": "Rammstein",
    "meta": {
      "artistId": 408932,
      "artistName": "Rammstein",
      "collectionId": 479060660,
      "collectionName": "Mein Land - EP",
      "kind": "album",
      "term": "Rammstein",
      "type": "collection"
    }
  },
  {
    "type": "album",
    "author": "Rammstein",
    "title": "Mutter",
    "term": "Rammstein",
    "meta": {
      "artistId": 408932,
      "artistName": "Rammstein",
      "collectionId": 368318241,
      "collectionName": "Mutter",
      "kind": "album",
      "term": "Rammstein",
      "type": "collection"
    }
  },
  {
    "type": "album",
    "author": "Rammstein",
    "title": "PARIS (LIVE)",
    "term": "Rammstein",
    "meta": {
      "artistId": 408932,
      "artistName": "Rammstein",
      "collectionId": 1217633601,
      "collectionName": "PARIS (LIVE)",
      "kind": "album",
      "term": "Rammstein",
      "type": "collection"
    }
  },
  {
    "type": "album",
    "author": "Rammstein",
    "title": "RARITÄTEN (1994-2012)",
    "term": "Rammstein",
    "meta": {
      "artistId": 408932,
      "artistName": "Rammstein",
      "collectionId": 1237354646,
      "collectionName": "RARITÄTEN (1994-2012)",
      "kind": "album",
      "term": "Rammstein",
      "type": "collection"
    }
  },
  {
    "type": "album",
    "author": "Rammstein",
    "title": "Reise, Reise",
    "term": "Rammstein",
    "meta": {
      "artistId": 408932,
      "artistName": "Rammstein",
      "collectionId": 368318407,
      "collectionName": "Reise, Reise",
      "kind": "album",
      "term": "Rammstein",
      "type": "collection"
    }
  },
  {
    "type": "album",
    "author": "Rammstein",
    "title": "Rosenrot",
    "term": "Rammstein",
    "meta": {
      "artistId": 408932,
      "artistName": "Rammstein",
      "collectionId": 368318544,
      "collectionName": "Rosenrot",
      "kind": "album",
      "term": "Rammstein",
      "type": "collection"
    }
  },
  {
    "type": "album",
    "author": "Rammstein",
    "title": "Sehnsucht",
    "term": "Rammstein",
    "meta": {
      "artistId": 408932,
      "artistName": "Rammstein",
      "collectionId": 368317231,
      "collectionName": "Sehnsucht",
      "kind": "album",
      "term": "Rammstein",
      "type": "collection"
    }
  },
  {
    "type": "album",
    "author": "Rammstein",
    "title": "XXI - Klavier",
    "term": "Rammstein",
    "meta": {
      "artistId": 408932,
      "artistName": "Rammstein",
      "collectionId": 1167514006,
      "collectionName": "XXI - Klavier",
      "kind": "album",
      "term": "Rammstein",
      "type": "collection"
    }
  },
  {
    "type": "album",
    "author": "God Is an Astronaut",
    "title": "A Moment of Stillness (2011 Remastered Edition)",
    "term": "God is an Astronaut",
    "meta": {
      "artistId": 175274090,
      "artistName": "God Is an Astronaut",
      "collectionId": 491771172,
      "collectionName": "A Moment of Stillness (2011 Remastered Edition)",
      "kind": "album",
      "term": "God is an Astronaut",
      "type": "collection"
    }
  },
  {
    "type": "album",
    "author": "God Is an Astronaut",
    "title": "Age Of The Fifth Sun",
    "term": "God is an Astronaut",
    "meta": {
      "artistId": 175274090,
      "artistName": "God Is an Astronaut",
      "collectionId": 368735994,
      "collectionName": "Age Of The Fifth Sun",
      "kind": "album",
      "term": "God is an Astronaut",
      "type": "collection"
    }
  },
  {
    "type": "album",
    "author": "God Is an Astronaut",
    "title": "All Is Violent, All Is Bright (Remastered)",
    "term": "God is an Astronaut",
    "meta": {
      "artistId": 175274090,
      "artistName": "God Is an Astronaut",
      "collectionId": 481699696,
      "collectionName": "All Is Violent, All Is Bright (Remastered)",
      "kind": "album",
      "term": "God is an Astronaut",
      "type": "collection"
    }
  },
  {
    "type": "album",
    "author": "God Is an Astronaut",
    "title": "Epitaph",
    "term": "God is an Astronaut",
    "meta": {
      "artistId": 175274090,
      "artistName": "God Is an Astronaut",
      "collectionId": 1345690216,
      "collectionName": "Epitaph",
      "kind": "album",
      "term": "God is an Astronaut",
      "type": "collection"
    }
  },
  {
    "type": "album",
    "author": "God Is an Astronaut",
    "title": "Far from Refuge (Remastered)",
    "term": "God is an Astronaut",
    "meta": {
      "artistId": 175274090,
      "artistName": "God Is an Astronaut",
      "collectionId": 474113084,
      "collectionName": "Far from Refuge (Remastered)",
      "kind": "album",
      "term": "God is an Astronaut",
      "type": "collection"
    }
  },
  {
    "type": "album",
    "author": "God Is an Astronaut",
    "title": "God Is An Astronaut (Remastered)",
    "term": "God is an Astronaut",
    "meta": {
      "artistId": 175274090,
      "artistName": "God Is an Astronaut",
      "collectionId": 474509894,
      "collectionName": "God Is An Astronaut (Remastered)",
      "kind": "album",
      "term": "God is an Astronaut",
      "type": "collection"
    }
  },
  {
    "type": "album",
    "author": "GhostMolly",
    "title": "God Is an Astronaut - EP",
    "term": "God is an Astronaut",
    "meta": {
      "artistId": 1263315316,
      "artistName": "GhostMolly",
      "collectionId": 1263314993,
      "collectionName": "God Is an Astronaut - EP",
      "kind": "album",
      "term": "God is an Astronaut",
      "type": "collection"
    }
  },
  {
    "type": "album",
    "author": "God Is an Astronaut",
    "title": "Helios / Erebus",
    "term": "God is an Astronaut",
    "meta": {
      "artistId": 175274090,
      "artistName": "God Is an Astronaut",
      "collectionId": 1009018992,
      "collectionName": "Helios / Erebus",
      "kind": "album",
      "term": "God is an Astronaut",
      "type": "collection"
    }
  },
  {
    "type": "album",
    "author": "God Is an Astronaut",
    "title": "Origins",
    "term": "God is an Astronaut",
    "meta": {
      "artistId": 175274090,
      "artistName": "God Is an Astronaut",
      "collectionId": 677899650,
      "collectionName": "Origins",
      "kind": "album",
      "term": "God is an Astronaut",
      "type": "collection"
    }
  },
  {
    "type": "album",
    "author": "God Is an Astronaut",
    "title": "The End of the Beginning (Remastered)",
    "term": "God is an Astronaut",
    "meta": {
      "artistId": 175274090,
      "artistName": "God Is an Astronaut",
      "collectionId": 474122432,
      "collectionName": "The End of the Beginning (Remastered)",
      "kind": "album",
      "term": "God is an Astronaut",
      "type": "collection"
    }
  },
  {
    "type": "album",
    "author": "God Is an Astronaut",
    "title": "The Last March - Single",
    "term": "God is an Astronaut",
    "meta": {
      "artistId": 175274090,
      "artistName": "God Is an Astronaut",
      "collectionId": 819537566,
      "collectionName": "The Last March - Single",
      "kind": "album",
      "term": "God is an Astronaut",
      "type": "collection"
    }
  },
  {
    "type": "album",
    "author": "Carpenter Brut",
    "title": "Carpenterbrutlive",
    "term": "Carpenter Brut",
    "meta": {
      "artistId": 593656958,
      "artistName": "Carpenter Brut",
      "collectionId": 1238507825,
      "collectionName": "Carpenterbrutlive",
      "kind": "album",
      "term": "Carpenter Brut",
      "type": "collection"
    }
  },
  {
    "type": "album",
    "author": "Carpenter Brut",
    "title": "Leather Teeth",
    "term": "Carpenter Brut",
    "meta": {
      "artistId": 593656958,
      "artistName": "Carpenter Brut",
      "collectionId": 1348659886,
      "collectionName": "Leather Teeth",
      "kind": "album",
      "term": "Carpenter Brut",
      "type": "collection"
    }
  },
  {
    "type": "album",
    "author": "Carpenter Brut",
    "title": "Night Stalker (From \"The Rise of the Synths\") - Single",
    "term": "Carpenter Brut",
    "meta": {
      "artistId": 593656958,
      "artistName": "Carpenter Brut",
      "collectionId": 1215111175,
      "collectionName": "Night Stalker (From \"The Rise of the Synths\") - Single",
      "kind": "album",
      "term": "Carpenter Brut",
      "type": "collection"
    }
  },
  {
    "type": "album",
    "author": "Carpenter Brut",
    "title": "Trilogy",
    "term": "Carpenter Brut",
    "meta": {
      "artistId": 593656958,
      "artistName": "Carpenter Brut",
      "collectionId": 1251583930,
      "collectionName": "Trilogy",
      "kind": "album",
      "term": "Carpenter Brut",
      "type": "collection"
    }
  },
  {
    "type": "album",
    "author": "Le Couleur",
    "title": "Vacances de 87 (feat. Carpenter Brut, Beat Market & French Fox) [Remixes] - EP",
    "term": "Carpenter Brut",
    "meta": {
      "artistId": 397213968,
      "artistName": "Le Couleur",
      "collectionId": 1174519880,
      "collectionName": "Vacances de 87 (feat. Carpenter Brut, Beat Market & French Fox) [Remixes] - EP",
      "kind": "album",
      "term": "Carpenter Brut",
      "type": "collection"
    }
  }
]